\relax 
\providecommand\hyper@newdestlabel[2]{}
\providecommand\BKM@entry[2]{}
\providecommand\zref@newlabel[2]{}
\providecommand*{\memsetcounter}[2]{}
\providecommand\HyperFirstAtBeginDocument{\AtBeginDocument}
\HyperFirstAtBeginDocument{\ifx\hyper@anchor\@undefined
\global\let\oldcontentsline\contentsline
\gdef\contentsline#1#2#3#4{\oldcontentsline{#1}{#2}{#3}}
\global\let\oldnewlabel\newlabel
\gdef\newlabel#1#2{\newlabelxx{#1}#2}
\gdef\newlabelxx#1#2#3#4#5#6{\oldnewlabel{#1}{{#2}{#3}}}
\AtEndDocument{\ifx\hyper@anchor\@undefined
\let\contentsline\oldcontentsline
\let\newlabel\oldnewlabel
\fi}
\fi}
\global\let\hyper@last\relax 
\gdef\HyperFirstAtBeginDocument#1{#1}
\providecommand\HyField@AuxAddToFields[1]{}
\providecommand\HyField@AuxAddToCoFields[2]{}
\catcode `"\active 
\citation{abnt-url-package=url}
\providecommand\acro@used@once[4]{}
\providecommand\acro@used@twice[4]{}
\providecommand\acro@pages[2]{}
\providecommand\acro@rerun@check{}
\providecommand\acro@print@list{}
\@writefile{toc}{\changetocdepth  {4}}
\select@language{brazil}
\@writefile{toc}{\select@language{brazil}}
\@writefile{lof}{\select@language{brazil}}
\@writefile{lot}{\select@language{brazil}}
\BKM@entry{id=1,dest={746F632E30},srcline={183}}{53756D5C33343172696F}
\@writefile{toc}{\setlength  {\cftchapterindent }{\cftlastnumwidth } \setlength  {\cftchapternumwidth }{2em}}
\BKM@entry{id=2,dest={636861707465722E31},srcline={196}}{436F6E686563656E646F206F204D5C33363364756C6F20436F6E746162696C6964616465}
\@writefile{toc}{\setlength  {\cftchapterindent }{0em} \setlength  {\cftchapternumwidth }{\cftlastnumwidth }}
\@writefile{toc}{\contentsline {chapter}{\chapternumberline {1}\MakeTextUppercase  {Conhecendo o M\IeC {\'o}dulo Contabilidade}}{3}{chapter.1}}
\newlabel{contabilidade}{{1}{3}{Conhecendo o Módulo Contabilidade}{chapter.1}{}}
\BKM@entry{id=3,dest={73656374696F6E2E312E31},srcline={216}}{45737472757475726120646120436F6E746162696C6964616465}
\@writefile{toc}{\contentsline {section}{\numberline {1.1}Estrutura da Contabilidade}{4}{section.1.1}}
\BKM@entry{id=4,dest={73656374696F6E2E312E32},srcline={379}}{466C75786F204F7065726163696F6E616C20646120436F6E746162696C6964616465}
\@writefile{toc}{\contentsline {section}{\numberline {1.2}Fluxo Operacional da Contabilidade}{8}{section.1.2}}
\newlabel{sigactb_fluxo_operacional_1}{{1.2}{9}{Fluxo Operacional da Contabilidade}{section.1.2}{}}
\newlabel{sigactb_fluxo_operacional_2}{{1.2}{10}{Fluxo Operacional da Contabilidade}{section.1.2}{}}
\BKM@entry{id=5,dest={636861707465722E32},srcline={399}}{5574696C697A616E646F206F20416D6269656E7465}
\BKM@entry{id=6,dest={73656374696F6E2E322E31},srcline={404}}{4163657373616E646F206F2050726F7468657573}
\BKM@entry{id=7,dest={73656374696F6E2E322E32},srcline={416}}{54656C6120496E696369616C}
\@writefile{toc}{\setlength  {\cftchapterindent }{0em} \setlength  {\cftchapternumwidth }{\cftlastnumwidth }}
\@writefile{toc}{\contentsline {chapter}{\chapternumberline {2}\MakeTextUppercase  {Utilizando o Ambiente}}{11}{chapter.2}}
\newlabel{ambiente}{{2}{11}{Utilizando o Ambiente}{chapter.2}{}}
\@writefile{toc}{\contentsline {section}{\numberline {2.1}Acessando o Protheus}{11}{section.2.1}}
\newlabel{tela_login}{{2.1}{11}{Acessando o Protheus}{section.2.1}{}}
\BKM@entry{id=8,dest={73656374696F6E2E322E33},srcline={439}}{54726F63616E646F206465204D5C33363364756C6F2F456D70726573612F46696C69616C}
\@writefile{toc}{\contentsline {section}{\numberline {2.2}Tela Inicial}{12}{section.2.2}}
\newlabel{tela_login1}{{2.2}{12}{Tela Inicial}{section.2.2}{}}
\@writefile{toc}{\contentsline {section}{\numberline {2.3}Trocando de M\IeC {\'o}dulo/Empresa/Filial}{12}{section.2.3}}
\newlabel{trocando_mod_emp_fil}{{2.3}{13}{Trocando de Módulo/Empresa/Filial}{section.2.3}{}}
\newlabel{trocando_mod_emp_fil2}{{2.3}{13}{Trocando de Módulo/Empresa/Filial}{section.2.3}{}}
\BKM@entry{id=9,dest={636861707465722E33},srcline={463}}{417475616C697A615C3334375C3336356573}
\BKM@entry{id=10,dest={73656374696F6E2E332E31},srcline={473}}{436164617374726F73}
\BKM@entry{id=11,dest={73756273656374696F6E2E332E312E31},srcline={483}}{43616C656E645C33343172696F20436F6E745C33343162696C}
\@writefile{toc}{\setlength  {\cftchapterindent }{0em} \setlength  {\cftchapternumwidth }{\cftlastnumwidth }}
\@writefile{toc}{\contentsline {chapter}{\chapternumberline {3}\MakeTextUppercase  {Atualiza\IeC {\c c}\IeC {\~o}es}}{15}{chapter.3}}
\newlabel{atualizacoes}{{3}{15}{Atualizações}{chapter.3}{}}
\newlabel{menu_atualizacoes}{{3}{15}{Atualizações}{chapter.3}{}}
\@writefile{toc}{\contentsline {section}{\numberline {3.1}Cadastros}{15}{section.3.1}}
\newlabel{menu_cad}{{3.1}{15}{Cadastros}{section.3.1}{}}
\BKM@entry{id=12,dest={73756273656374696F6E2E332E312E32},srcline={515}}{4D6F6564617320436F6E745C33343162656973}
\@writefile{toc}{\contentsline {subsection}{\numberline {3.1.1}Calend\IeC {\'a}rio Cont\IeC {\'a}bil}{16}{subsection.3.1.1}}
\@writefile{toc}{\contentsline {subsection}{\numberline {3.1.2}Moedas Cont\IeC {\'a}beis}{16}{subsection.3.1.2}}
\newlabel{tela_cad_calendcont}{{3.1.1}{17}{Calendário Contábil}{subsection.3.1.1}{}}
\newlabel{tela_cad_calendcont_incluir}{{3.1.1}{17}{Calendário Contábil}{subsection.3.1.1}{}}
\newlabel{tela_cad_moedascont}{{3.1.2}{17}{Moedas Contábeis}{subsection.3.1.2}{}}
\BKM@entry{id=13,dest={73756273656374696F6E2E332E312E33},srcline={544}}{4D6F65646120582043616C656E645C33343172696F}
\newlabel{tela_cad_moedascont_incluir}{{3.1.2}{18}{Moedas Contábeis}{subsection.3.1.2}{}}
\@writefile{toc}{\contentsline {subsection}{\numberline {3.1.3}Moeda X Calend\IeC {\'a}rio}{18}{subsection.3.1.3}}
\BKM@entry{id=14,dest={73756273656374696F6E2E332E312E34},srcline={566}}{436F6E746162696C69737461}
\newlabel{tela_cad_moedacalend}{{3.1.3}{19}{Moeda X Calendário}{subsection.3.1.3}{}}
\newlabel{tela_cad_moedacalend_incluir}{{3.1.3}{19}{Moeda X Calendário}{subsection.3.1.3}{}}
\@writefile{toc}{\contentsline {subsection}{\numberline {3.1.4}Contabilista}{19}{subsection.3.1.4}}
\BKM@entry{id=15,dest={73656374696F6E2E332E32},srcline={584}}{456E74696461646573}
\BKM@entry{id=16,dest={73756273656374696F6E2E332E322E31},srcline={594}}{437573746F73}
\newlabel{tela_cad_contabilista}{{3.1.4}{20}{Contabilista}{subsection.3.1.4}{}}
\newlabel{tela_cad_contabilista_incluir}{{3.1.4}{20}{Contabilista}{subsection.3.1.4}{}}
\@writefile{toc}{\contentsline {section}{\numberline {3.2}Entidades}{20}{section.3.2}}
\newlabel{menu_entidades}{{3.2}{21}{Entidades}{section.3.2}{}}
\@writefile{toc}{\contentsline {subsection}{\numberline {3.2.1}Custos}{21}{subsection.3.2.1}}
\newlabel{tela_ent_custos2}{{3.2.1}{21}{Custos}{subsection.3.2.1}{}}
\newlabel{tela_ent_custos}{{3.2.1}{21}{Custos}{subsection.3.2.1}{}}
\BKM@entry{id=17,dest={73756273756273656374696F6E2E332E322E312E31},srcline={622}}{43656E74726F20646520437573746F}
\newlabel{tela_ent_custos_param}{{3.2.1}{22}{Custos}{subsection.3.2.1}{}}
\@writefile{toc}{\contentsline {subsubsection}{\numberline {3.2.1.1}Centro de Custo}{22}{subsubsection.3.2.1.1}}
\BKM@entry{id=18,dest={73756273756273656374696F6E2E332E322E312E32},srcline={661}}{4974656D20436F6E745C33343162696C}
\newlabel{tela_ent_custos_cc}{{3.2.1.1}{24}{Centro de Custo}{subsubsection.3.2.1.1}{}}
\newlabel{tela_ent_custos_cc2}{{3.2.1.1}{24}{Centro de Custo}{subsubsection.3.2.1.1}{}}
\@writefile{toc}{\contentsline {subsubsection}{\numberline {3.2.1.2}Item Cont\IeC {\'a}bil}{25}{subsubsection.3.2.1.2}}
\BKM@entry{id=19,dest={73756273756273656374696F6E2E332E322E312E33},srcline={721}}{435C3336336469676F20436C617373652064652056616C6F72}
\newlabel{tela_ent_custos_itcont}{{3.2.1.2}{27}{Item Contábil}{subsubsection.3.2.1.2}{}}
\newlabel{tela_ent_custos_itcont2}{{3.2.1.2}{27}{Item Contábil}{subsubsection.3.2.1.2}{}}
\@writefile{toc}{\contentsline {subsubsection}{\numberline {3.2.1.3}C\IeC {\'o}digo Classe de Valor}{28}{subsubsection.3.2.1.3}}
\BKM@entry{id=20,dest={73756273656374696F6E2E332E322E32},srcline={781}}{4C616E5C333437616D656E746F20506164725C3334336F}
\newlabel{tela_ent_custos_clvalor}{{3.2.1.3}{30}{Código Classe de Valor}{subsubsection.3.2.1.3}{}}
\newlabel{tela_ent_custos_clvalor2}{{3.2.1.3}{30}{Código Classe de Valor}{subsubsection.3.2.1.3}{}}
\BKM@entry{id=21,dest={73656374696F6E2E332E33},srcline={806}}{52617465696F204F66662D6C696E65}
\@writefile{toc}{\contentsline {subsection}{\numberline {3.2.2}Lan\IeC {\c c}amento Padr\IeC {\~a}o}{31}{subsection.3.2.2}}
\newlabel{tela_ent_lancpadrao}{{3.2.2}{31}{Lançamento Padrão}{subsection.3.2.2}{}}
\@writefile{toc}{\contentsline {section}{\numberline {3.3}Rateio Off-line}{31}{section.3.3}}
\BKM@entry{id=22,dest={73656374696F6E2E332E34},srcline={834}}{4C616E5C333437616D656E746F7320436F6E745C33343162656973}
\newlabel{tela_ent_lancpadrao_incluir}{{3.2.2}{32}{Lançamento Padrão}{subsection.3.2.2}{}}
\newlabel{menu_rateios}{{3.3}{32}{Rateio Off-line}{section.3.3}{}}
\newlabel{tela_rateio_offline}{{3.3}{33}{Rateio Off-line}{section.3.3}{}}
\newlabel{tela_rateio_offline_incluir}{{3.3}{33}{Rateio Off-line}{section.3.3}{}}
\@writefile{toc}{\contentsline {section}{\numberline {3.4}Lan\IeC {\c c}amentos Cont\IeC {\'a}beis}{33}{section.3.4}}
\newlabel{menu_mov_lancontab}{{3.4}{33}{Lançamentos Contábeis}{section.3.4}{}}
\newlabel{tela_mov_lancontab_param}{{3.4}{34}{Lançamentos Contábeis}{section.3.4}{}}
\newlabel{tela_mov_lancontab}{{3.4}{34}{Lançamentos Contábeis}{section.3.4}{}}
\newlabel{tela_mov_lancontab_incluir}{{3.4}{34}{Lançamentos Contábeis}{section.3.4}{}}
\newlabel{tela_mov_lancontab_incluir2}{{3.4}{35}{Lançamentos Contábeis}{section.3.4}{}}
\BKM@entry{id=23,dest={636861707465722E34},srcline={881}}{436F6E73756C746173}
\BKM@entry{id=24,dest={73656374696F6E2E342E31},srcline={891}}{436164617374726F2047656E5C3335317269636F}
\BKM@entry{id=25,dest={73656374696F6E2E342E32},srcline={912}}{52617A5C3334336F20436F6E745C33343162696C}
\@writefile{toc}{\setlength  {\cftchapterindent }{0em} \setlength  {\cftchapternumwidth }{\cftlastnumwidth }}
\@writefile{toc}{\contentsline {chapter}{\chapternumberline {4}\MakeTextUppercase  {Consultas}}{37}{chapter.4}}
\newlabel{consultas}{{4}{37}{Consultas}{chapter.4}{}}
\newlabel{menu_consultas}{{4}{37}{Consultas}{chapter.4}{}}
\@writefile{toc}{\contentsline {section}{\numberline {4.1}Cadastro Gen\IeC {\'e}rico}{37}{section.4.1}}
\newlabel{tela_consulta_cad_generico}{{4.1}{37}{Cadastro Genérico}{section.4.1}{}}
\newlabel{tela_consulta_cad_generico2}{{4.1}{38}{Cadastro Genérico}{section.4.1}{}}
\@writefile{toc}{\contentsline {section}{\numberline {4.2}Raz\IeC {\~a}o Cont\IeC {\'a}bil}{38}{section.4.2}}
\newlabel{tela_consulta_razao_contab_param}{{4.2}{38}{Razão Contábil}{section.4.2}{}}
\newlabel{tela_consulta_razao_contab}{{4.2}{39}{Razão Contábil}{section.4.2}{}}
\BKM@entry{id=26,dest={636861707465722E35},srcline={938}}{52656C61745C33363372696F2064652042616C616E63657465205C286D6F64656C6F20315C29}
\@writefile{toc}{\setlength  {\cftchapterindent }{0em} \setlength  {\cftchapternumwidth }{\cftlastnumwidth }}
\@writefile{toc}{\contentsline {chapter}{\chapternumberline {5}\MakeTextUppercase  {Relat\IeC {\'o}rio de Balancete (modelo 1)}}{41}{chapter.5}}
\newlabel{balancete}{{5}{41}{Relatório de Balancete (modelo 1)}{chapter.5}{}}
\newlabel{menu_balancete}{{5}{41}{Relatório de Balancete (modelo 1)}{chapter.5}{}}
\newlabel{tela_rel_person_imprimir}{{5}{41}{Relatório de Balancete (modelo 1)}{chapter.5}{}}
\newlabel{tela_balancete_param}{{5}{42}{Relatório de Balancete (modelo 1)}{chapter.5}{}}
\newlabel{LastPage}{{}{42}{}{page.42}{}}
\xdef\lastpage@lastpage{42}
\xdef\lastpage@lastpageHy{42}
\bibstyle{abntex2-alf}
\memsetcounter{lastsheet}{42}
\memsetcounter{lastpage}{42}
