\relax 
\providecommand\hyper@newdestlabel[2]{}
\providecommand\BKM@entry[2]{}
\providecommand\zref@newlabel[2]{}
\providecommand*{\memsetcounter}[2]{}
\providecommand\HyperFirstAtBeginDocument{\AtBeginDocument}
\HyperFirstAtBeginDocument{\ifx\hyper@anchor\@undefined
\global\let\oldcontentsline\contentsline
\gdef\contentsline#1#2#3#4{\oldcontentsline{#1}{#2}{#3}}
\global\let\oldnewlabel\newlabel
\gdef\newlabel#1#2{\newlabelxx{#1}#2}
\gdef\newlabelxx#1#2#3#4#5#6{\oldnewlabel{#1}{{#2}{#3}}}
\AtEndDocument{\ifx\hyper@anchor\@undefined
\let\contentsline\oldcontentsline
\let\newlabel\oldnewlabel
\fi}
\fi}
\global\let\hyper@last\relax 
\gdef\HyperFirstAtBeginDocument#1{#1}
\providecommand\HyField@AuxAddToFields[1]{}
\providecommand\HyField@AuxAddToCoFields[2]{}
\catcode `"\active 
\citation{abnt-url-package=url}
\providecommand\acro@used@once[4]{}
\providecommand\acro@used@twice[4]{}
\providecommand\acro@pages[2]{}
\providecommand\acro@rerun@check{}
\providecommand\acro@print@list{}
\@writefile{toc}{\changetocdepth  {4}}
\select@language{brazil}
\@writefile{toc}{\select@language{brazil}}
\@writefile{lof}{\select@language{brazil}}
\@writefile{lot}{\select@language{brazil}}
\BKM@entry{id=1,dest={746F632E30},srcline={183}}{53756D5C33343172696F}
\@writefile{toc}{\setlength  {\cftchapterindent }{\cftlastnumwidth } \setlength  {\cftchapternumwidth }{2em}}
\BKM@entry{id=2,dest={636861707465722E31},srcline={196}}{436F6E686563656E646F206F204D5C33363364756C6F204573746F717565}
\@writefile{toc}{\setlength  {\cftchapterindent }{0em} \setlength  {\cftchapternumwidth }{\cftlastnumwidth }}
\@writefile{toc}{\contentsline {chapter}{\chapternumberline {1}\MakeTextUppercase  {Conhecendo o M\IeC {\'o}dulo Estoque}}{3}{chapter.1}}
\newlabel{estoque}{{1}{3}{Conhecendo o Módulo Estoque}{chapter.1}{}}
\BKM@entry{id=3,dest={73656374696F6E2E312E31},srcline={231}}{466C75786F204F7065726163696F6E616C20646F204D5C33363364756C6F}
\@writefile{toc}{\contentsline {section}{\numberline {1.1}Fluxo Operacional do M\IeC {\'o}dulo}{4}{section.1.1}}
\newlabel{sigaest_fluxo_estoque1}{{1.1}{5}{Fluxo Operacional do Módulo}{section.1.1}{}}
\BKM@entry{id=4,dest={636861707465722E32},srcline={246}}{5574696C697A616E646F206F20416D6269656E7465}
\BKM@entry{id=5,dest={73656374696F6E2E322E31},srcline={251}}{4163657373616E646F206F2050726F7468657573}
\BKM@entry{id=6,dest={73656374696F6E2E322E32},srcline={263}}{54656C6120496E696369616C}
\@writefile{toc}{\setlength  {\cftchapterindent }{0em} \setlength  {\cftchapternumwidth }{\cftlastnumwidth }}
\@writefile{toc}{\contentsline {chapter}{\chapternumberline {2}\MakeTextUppercase  {Utilizando o Ambiente}}{7}{chapter.2}}
\newlabel{ambiente}{{2}{7}{Utilizando o Ambiente}{chapter.2}{}}
\@writefile{toc}{\contentsline {section}{\numberline {2.1}Acessando o Protheus}{7}{section.2.1}}
\newlabel{tela_login}{{2.1}{7}{Acessando o Protheus}{section.2.1}{}}
\BKM@entry{id=7,dest={73656374696F6E2E322E33},srcline={284}}{54726F63616E646F206465204D5C33363364756C6F2F456D70726573612F46696C69616C}
\@writefile{toc}{\contentsline {section}{\numberline {2.2}Tela Inicial}{8}{section.2.2}}
\newlabel{tela_login1}{{2.2}{8}{Tela Inicial}{section.2.2}{}}
\@writefile{toc}{\contentsline {section}{\numberline {2.3}Trocando de M\IeC {\'o}dulo/Empresa/Filial}{8}{section.2.3}}
\newlabel{trocando_mod_emp_fil}{{2.3}{9}{Trocando de Módulo/Empresa/Filial}{section.2.3}{}}
\BKM@entry{id=8,dest={636861707465722E33},srcline={308}}{417475616C697A615C3334375C3336356573}
\BKM@entry{id=9,dest={73656374696F6E2E332E31},srcline={320}}{436164617374726F73}
\BKM@entry{id=10,dest={73756273656374696F6E2E332E312E31},srcline={330}}{477275706F2064652050726F6475746F73}
\@writefile{toc}{\setlength  {\cftchapterindent }{0em} \setlength  {\cftchapternumwidth }{\cftlastnumwidth }}
\@writefile{toc}{\contentsline {chapter}{\chapternumberline {3}\MakeTextUppercase  {Atualiza\IeC {\c c}\IeC {\~o}es}}{11}{chapter.3}}
\newlabel{atualizacoes}{{3}{11}{Atualizações}{chapter.3}{}}
\newlabel{menu_atualizacoes}{{3}{11}{Atualizações}{chapter.3}{}}
\@writefile{toc}{\contentsline {section}{\numberline {3.1}Cadastros}{11}{section.3.1}}
\newlabel{menu_atualizacoes_cad}{{3.1}{11}{Cadastros}{section.3.1}{}}
\BKM@entry{id=11,dest={73756273656374696F6E2E332E312E32},srcline={358}}{556E696461646573206465204D6564696461}
\@writefile{toc}{\contentsline {subsection}{\numberline {3.1.1}Grupo de Produtos}{12}{subsection.3.1.1}}
\newlabel{tela_cad_gproduto}{{3.1.1}{12}{Grupo de Produtos}{subsection.3.1.1}{}}
\BKM@entry{id=12,dest={73756273656374696F6E2E332E312E33},srcline={386}}{50726F6475746F73}
\newlabel{tela_cad_gproduto_incluir}{{3.1.1}{13}{Grupo de Produtos}{subsection.3.1.1}{}}
\@writefile{toc}{\contentsline {subsection}{\numberline {3.1.2}Unidades de Medida}{13}{subsection.3.1.2}}
\@writefile{toc}{\contentsline {subsection}{\numberline {3.1.3}Produtos}{13}{subsection.3.1.3}}
\BKM@entry{id=13,dest={73756273656374696F6E2E332E312E34},srcline={424}}{53616C646F7320496E696369616973}
\newlabel{tela_cad_umedida}{{3.1.2}{14}{Unidades de Medida}{subsection.3.1.2}{}}
\newlabel{tela_cad_umedida_incluir}{{3.1.2}{14}{Unidades de Medida}{subsection.3.1.2}{}}
\newlabel{tela_cad_produto}{{3.1.3}{15}{Produtos}{subsection.3.1.3}{}}
\newlabel{tela_cad_produto_incluir}{{3.1.3}{15}{Produtos}{subsection.3.1.3}{}}
\newlabel{tela_cad_produto_incluir2}{{3.1.3}{15}{Produtos}{subsection.3.1.3}{}}
\newlabel{tela_cad_produto_incluir3}{{3.1.3}{16}{Produtos}{subsection.3.1.3}{}}
\newlabel{tela_cad_produto_incluir4}{{3.1.3}{16}{Produtos}{subsection.3.1.3}{}}
\@writefile{toc}{\contentsline {subsection}{\numberline {3.1.4}Saldos Iniciais}{16}{subsection.3.1.4}}
\newlabel{menu_atualizacoes_estoque}{{3.1.4}{16}{Saldos Iniciais}{subsection.3.1.4}{}}
\BKM@entry{id=14,dest={73656374696F6E2E332E32},srcline={454}}{5265717569732E20416F2041726D617A5C3335316D}
\newlabel{tela_cad_saldoini}{{3.1.4}{17}{Saldos Iniciais}{subsection.3.1.4}{}}
\newlabel{tela_cad_saldoini_incluir}{{3.1.4}{17}{Saldos Iniciais}{subsection.3.1.4}{}}
\BKM@entry{id=15,dest={73756273656374696F6E2E332E322E31},srcline={464}}{536F6C696369742E20616F2041726D617A5C3335316D}
\BKM@entry{id=16,dest={73756273656374696F6E2E332E322E32},srcline={481}}{476572612050725C3335312D526573717569735C3334336F}
\@writefile{toc}{\contentsline {section}{\numberline {3.2}Requis. Ao Armaz\IeC {\'e}m}{18}{section.3.2}}
\newlabel{menu_requis_armazem}{{3.2}{18}{Requis. Ao Armazém}{section.3.2}{}}
\@writefile{toc}{\contentsline {subsection}{\numberline {3.2.1}Solicit. ao Armaz\IeC {\'e}m}{18}{subsection.3.2.1}}
\newlabel{tela_solicit_armazem}{{3.2.1}{18}{Solicit. ao Armazém}{subsection.3.2.1}{}}
\BKM@entry{id=17,dest={73756273656374696F6E2E332E322E33},srcline={496}}{42616978612050725C3335312D526573717569735C3334336F}
\newlabel{tela_solicit_armazem_incluir}{{3.2.1}{19}{Solicit. ao Armazém}{subsection.3.2.1}{}}
\@writefile{toc}{\contentsline {subsection}{\numberline {3.2.2}Gera Pr\IeC {\'e}-Resquis\IeC {\~a}o}{19}{subsection.3.2.2}}
\newlabel{tela_gera_pre_requis}{{3.2.2}{19}{Gera Pré-Resquisão}{subsection.3.2.2}{}}
\@writefile{toc}{\contentsline {subsection}{\numberline {3.2.3}Baixa Pr\IeC {\'e}-Resquis\IeC {\~a}o}{19}{subsection.3.2.3}}
\BKM@entry{id=18,dest={73656374696F6E2E332E33},srcline={520}}{4D6F76696D656E746F7320496E7465726E6F73}
\newlabel{tela_baixa_pre_requis}{{3.2.3}{20}{Baixa Pré-Resquisão}{subsection.3.2.3}{}}
\newlabel{tela_baixa_requis_acoesrel}{{3.2.3}{20}{Baixa Pré-Resquisão}{subsection.3.2.3}{}}
\newlabel{tela_baixa_requis_leg}{{3.2.3}{20}{Baixa Pré-Resquisão}{subsection.3.2.3}{}}
\@writefile{toc}{\contentsline {section}{\numberline {3.3}Movimentos Internos}{20}{section.3.3}}
\BKM@entry{id=19,dest={73756273656374696F6E2E332E332E31},srcline={534}}{496E76656E745C33343172696F}
\BKM@entry{id=20,dest={73756273656374696F6E2E332E332E32},srcline={551}}{5472616E736665725C3335326E636961204D6F64656C6F2032}
\newlabel{menu_mov_internos}{{3.3}{21}{Movimentos Internos}{section.3.3}{}}
\@writefile{toc}{\contentsline {subsection}{\numberline {3.3.1}Invent\IeC {\'a}rio}{21}{subsection.3.3.1}}
\newlabel{tela_inventario}{{3.3.1}{21}{Inventário}{subsection.3.3.1}{}}
\BKM@entry{id=21,dest={73756273656374696F6E2E332E332E33},srcline={571}}{496E7465726E6F73204D6F642E2032}
\newlabel{tela_inventario_incluir}{{3.3.1}{22}{Inventário}{subsection.3.3.1}{}}
\@writefile{toc}{\contentsline {subsection}{\numberline {3.3.2}Transfer\IeC {\^e}ncia Modelo 2}{22}{subsection.3.3.2}}
\newlabel{tela_transf_mod2}{{3.3.2}{22}{Transferência Modelo 2}{subsection.3.3.2}{}}
\@writefile{toc}{\contentsline {subsection}{\numberline {3.3.3}Internos Mod. 2}{22}{subsection.3.3.3}}
\newlabel{tela_transf_mod2_incluir}{{3.3.2}{23}{Transferência Modelo 2}{subsection.3.3.2}{}}
\newlabel{tela_internos_mod2}{{3.3.3}{23}{Internos Mod. 2}{subsection.3.3.3}{}}
\newlabel{tela_internos_mod2_incluir}{{3.3.3}{23}{Internos Mod. 2}{subsection.3.3.3}{}}
\BKM@entry{id=22,dest={636861707465722E34},srcline={592}}{52656C61745C33363372696F73}
\BKM@entry{id=23,dest={73656374696F6E2E342E31},srcline={598}}{416E5C3334316C697365206465204D6F76696D656E746F73}
\BKM@entry{id=24,dest={73756273656374696F6E2E342E312E31},srcline={607}}{506F73695C3334375C3334336F2064617320536173}
\@writefile{toc}{\setlength  {\cftchapterindent }{0em} \setlength  {\cftchapternumwidth }{\cftlastnumwidth }}
\@writefile{toc}{\contentsline {chapter}{\chapternumberline {4}\MakeTextUppercase  {Relat\IeC {\'o}rios}}{25}{chapter.4}}
\newlabel{relatorios}{{4}{25}{Relatórios}{chapter.4}{}}
\@writefile{toc}{\contentsline {section}{\numberline {4.1}An\IeC {\'a}lise de Movimentos}{25}{section.4.1}}
\newlabel{menu_analise_mov}{{4.1}{25}{Análise de Movimentos}{section.4.1}{}}
\@writefile{toc}{\contentsline {subsection}{\numberline {4.1.1}Posi\IeC {\c c}\IeC {\~a}o das Sas}{25}{subsection.4.1.1}}
\newlabel{tela_poiscao_sas_rel_person}{{4.1.1}{25}{Posição das Sas}{subsection.4.1.1}{}}
\BKM@entry{id=25,dest={73756273656374696F6E2E342E312E32},srcline={633}}{456E74726164617320652053615C333535646173}
\newlabel{tela_posicao_sas_acoes_rel}{{4.1.1}{26}{Posição das Sas}{subsection.4.1.1}{}}
\newlabel{tela_posicao_sas_param}{{4.1.1}{26}{Posição das Sas}{subsection.4.1.1}{}}
\@writefile{toc}{\contentsline {subsection}{\numberline {4.1.2}Entradas e Sa\IeC {\'\i }das}{26}{subsection.4.1.2}}
\BKM@entry{id=26,dest={73656374696F6E2E342E32},srcline={659}}{506F73695C3334375C3334336F206465204573746F717565}
\newlabel{tela_poiscao_sas_rel_person}{{4.1.2}{27}{Entradas e Saídas}{subsection.4.1.2}{}}
\newlabel{tela_entrada_saida_acoes_rel}{{4.1.2}{27}{Entradas e Saídas}{subsection.4.1.2}{}}
\newlabel{tela_entrada_saida_param}{{4.1.2}{27}{Entradas e Saídas}{subsection.4.1.2}{}}
\BKM@entry{id=27,dest={73756273656374696F6E2E342E322E31},srcline={669}}{506F73695C3334375C3334336F206465204573746F71756573}
\@writefile{toc}{\contentsline {section}{\numberline {4.2}Posi\IeC {\c c}\IeC {\~a}o de Estoque}{28}{section.4.2}}
\newlabel{menu_posic_estoque}{{4.2}{28}{Posição de Estoque}{section.4.2}{}}
\@writefile{toc}{\contentsline {subsection}{\numberline {4.2.1}Posi\IeC {\c c}\IeC {\~a}o de Estoques}{28}{subsection.4.2.1}}
\newlabel{tela_poiscao_sas_rel_person}{{4.2.1}{28}{Posição de Estoques}{subsection.4.2.1}{}}
\newlabel{tela_posicao_estoque}{{4.2.1}{28}{Posição de Estoques}{subsection.4.2.1}{}}
\BKM@entry{id=28,dest={73756273656374696F6E2E342E322E32},srcline={695}}{53616C646F73204573746F71756573}
\newlabel{tela_posicao_estoque_param}{{4.2.1}{29}{Posição de Estoques}{subsection.4.2.1}{}}
\@writefile{toc}{\contentsline {subsection}{\numberline {4.2.2}Saldos Estoques}{29}{subsection.4.2.2}}
\newlabel{tela_poiscao_sas_rel_person}{{4.2.2}{29}{Saldos Estoques}{subsection.4.2.2}{}}
\newlabel{tela_saldo_estoque_acoesrel}{{4.2.2}{29}{Saldos Estoques}{subsection.4.2.2}{}}
\newlabel{tela_saldo_estoque_param}{{4.2.2}{30}{Saldos Estoques}{subsection.4.2.2}{}}
\BKM@entry{id=29,dest={636861707465722E35},srcline={722}}{4D697363656C5C3334326E6561}
\BKM@entry{id=30,dest={73656374696F6E2E352E31},srcline={733}}{46656368616D656E746F}
\BKM@entry{id=31,dest={73756273656374696F6E2E352E312E31},srcline={743}}{53616C646F20417475616C20702F2046696E616C}
\@writefile{toc}{\setlength  {\cftchapterindent }{0em} \setlength  {\cftchapternumwidth }{\cftlastnumwidth }}
\@writefile{toc}{\contentsline {chapter}{\chapternumberline {5}\MakeTextUppercase  {Miscel\IeC {\^a}nea}}{31}{chapter.5}}
\newlabel{miscelanea}{{5}{31}{Miscelânea}{chapter.5}{}}
\newlabel{menu_fechamento}{{5}{31}{Miscelânea}{chapter.5}{}}
\@writefile{toc}{\contentsline {section}{\numberline {5.1}Fechamento}{31}{section.5.1}}
\newlabel{menu_fechamento}{{5.1}{31}{Fechamento}{section.5.1}{}}
\BKM@entry{id=32,dest={73756273656374696F6E2E352E312E32},srcline={761}}{56697261646120646F732053616C646F73}
\@writefile{toc}{\contentsline {subsection}{\numberline {5.1.1}Saldo Atual p/ Final}{32}{subsection.5.1.1}}
\newlabel{tela_saldo_inicial_final}{{5.1.1}{32}{Saldo Atual p/ Final}{subsection.5.1.1}{}}
\newlabel{tela_saldo_inicial_final2}{{5.1.1}{32}{Saldo Atual p/ Final}{subsection.5.1.1}{}}
\@writefile{toc}{\contentsline {subsection}{\numberline {5.1.2}Virada dos Saldos}{32}{subsection.5.1.2}}
\BKM@entry{id=33,dest={73656374696F6E2E352E32},srcline={794}}{41636572746F20646520496E76656E745C33343172696F}
\newlabel{tela_virada_saldo}{{5.1.2}{33}{Virada dos Saldos}{subsection.5.1.2}{}}
\newlabel{tela_virada_saldo2}{{5.1.2}{33}{Virada dos Saldos}{subsection.5.1.2}{}}
\@writefile{toc}{\contentsline {section}{\numberline {5.2}Acerto de Invent\IeC {\'a}rio}{33}{section.5.2}}
\newlabel{tela_virada_saldo3}{{5.1.2}{34}{Virada dos Saldos}{subsection.5.1.2}{}}
\newlabel{menu_acerto_inventario}{{5.2}{34}{Acerto de Inventário}{section.5.2}{}}
\newlabel{tela_acerto_inventario}{{5.2}{34}{Acerto de Inventário}{section.5.2}{}}
\newlabel{tela_acerto_inventario_param}{{5.2}{35}{Acerto de Inventário}{section.5.2}{}}
\newlabel{LastPage}{{}{35}{}{page.35}{}}
\xdef\lastpage@lastpage{35}
\xdef\lastpage@lastpageHy{35}
\bibstyle{abntex2-alf}
\memsetcounter{lastsheet}{35}
\memsetcounter{lastpage}{35}
