\relax 
\providecommand\hyper@newdestlabel[2]{}
\providecommand\BKM@entry[2]{}
\providecommand\zref@newlabel[2]{}
\providecommand*{\memsetcounter}[2]{}
\providecommand\HyperFirstAtBeginDocument{\AtBeginDocument}
\HyperFirstAtBeginDocument{\ifx\hyper@anchor\@undefined
\global\let\oldcontentsline\contentsline
\gdef\contentsline#1#2#3#4{\oldcontentsline{#1}{#2}{#3}}
\global\let\oldnewlabel\newlabel
\gdef\newlabel#1#2{\newlabelxx{#1}#2}
\gdef\newlabelxx#1#2#3#4#5#6{\oldnewlabel{#1}{{#2}{#3}}}
\AtEndDocument{\ifx\hyper@anchor\@undefined
\let\contentsline\oldcontentsline
\let\newlabel\oldnewlabel
\fi}
\fi}
\global\let\hyper@last\relax 
\gdef\HyperFirstAtBeginDocument#1{#1}
\providecommand\HyField@AuxAddToFields[1]{}
\providecommand\HyField@AuxAddToCoFields[2]{}
\catcode `"\active 
\citation{abnt-url-package=url}
\providecommand\acro@used@once[4]{}
\providecommand\acro@used@twice[4]{}
\providecommand\acro@pages[2]{}
\providecommand\acro@rerun@check{}
\providecommand\acro@print@list{}
\@writefile{toc}{\changetocdepth  {4}}
\select@language{brazil}
\@writefile{toc}{\select@language{brazil}}
\@writefile{lof}{\select@language{brazil}}
\@writefile{lot}{\select@language{brazil}}
\BKM@entry{id=1,dest={746F632E30},srcline={197}}{53756D5C33343172696F}
\@writefile{toc}{\setlength  {\cftchapterindent }{\cftlastnumwidth } \setlength  {\cftchapternumwidth }{2em}}
\BKM@entry{id=2,dest={636861707465722E31},srcline={217}}{436F6E686563656E646F206F204D5C33363364756C6F204661747572616D656E746F}
\BKM@entry{id=3,dest={73656374696F6E2E312E31},srcline={236}}{45737472757475726120646F204661747572616D656E746F}
\@writefile{toc}{\setlength  {\cftchapterindent }{0em} \setlength  {\cftchapternumwidth }{\cftlastnumwidth }}
\@writefile{toc}{\contentsline {chapter}{\chapternumberline {1}\MakeTextUppercase  {Conhecendo o M\IeC {\'o}dulo Faturamento}}{3}{chapter.1}}
\newlabel{faturamento}{{1}{3}{Conhecendo o Módulo Faturamento}{chapter.1}{}}
\@writefile{toc}{\contentsline {section}{\numberline {1.1}Estrutura do Faturamento}{3}{section.1.1}}
\BKM@entry{id=4,dest={73656374696F6E2E312E32},srcline={272}}{466C75786F204F7065726163696F6E616C20646F204661747572616D656E746F}
\@writefile{toc}{\contentsline {section}{\numberline {1.2}Fluxo Operacional do Faturamento}{4}{section.1.2}}
\newlabel{tela_login1}{{1.1}{5}{Estrutura do Faturamento}{section.1.1}{}}
\BKM@entry{id=5,dest={636861707465722E32},srcline={276}}{5574696C697A616E646F206F20416D6269656E7465}
\BKM@entry{id=6,dest={73656374696F6E2E322E31},srcline={282}}{4163657373616E646F206F2050726F7468657573}
\BKM@entry{id=7,dest={73656374696F6E2E322E32},srcline={293}}{54656C6120496E696369616C}
\@writefile{toc}{\setlength  {\cftchapterindent }{0em} \setlength  {\cftchapternumwidth }{\cftlastnumwidth }}
\@writefile{toc}{\contentsline {chapter}{\chapternumberline {2}\MakeTextUppercase  {Utilizando o Ambiente}}{7}{chapter.2}}
\newlabel{ambiente}{{2}{7}{Utilizando o Ambiente}{chapter.2}{}}
\@writefile{toc}{\contentsline {section}{\numberline {2.1}Acessando o Protheus}{7}{section.2.1}}
\newlabel{tela_login1}{{2.1}{7}{Acessando o Protheus}{section.2.1}{}}
\BKM@entry{id=8,dest={73656374696F6E2E322E33},srcline={315}}{54726F63616E646F206465204D5C33363364756C6F2F456D70726573612F46696C69616C}
\@writefile{toc}{\contentsline {section}{\numberline {2.2}Tela Inicial}{8}{section.2.2}}
\newlabel{tela_login1}{{2.2}{8}{Tela Inicial}{section.2.2}{}}
\@writefile{toc}{\contentsline {section}{\numberline {2.3}Trocando de M\IeC {\'o}dulo/Empresa/Filial}{8}{section.2.3}}
\newlabel{trocando_mod_emp_fil}{{2.3}{9}{Trocando de Módulo/Empresa/Filial}{section.2.3}{}}
\newlabel{trocando_mod_emp_fil2}{{2.3}{9}{Trocando de Módulo/Empresa/Filial}{section.2.3}{}}
\BKM@entry{id=9,dest={636861707465722E33},srcline={336}}{417475616C697A615C3334375C3336356573}
\BKM@entry{id=10,dest={73656374696F6E2E332E31},srcline={341}}{50656469646F73}
\BKM@entry{id=11,dest={73756273656374696F6E2E332E312E31},srcline={350}}{50656469646F732064652056656E6461}
\BKM@entry{id=12,dest={73656374696F6E2E332E32},srcline={361}}{4661747572616D656E746F}
\@writefile{toc}{\setlength  {\cftchapterindent }{0em} \setlength  {\cftchapternumwidth }{\cftlastnumwidth }}
\@writefile{toc}{\contentsline {chapter}{\chapternumberline {3}\MakeTextUppercase  {Atualiza\IeC {\c c}\IeC {\~o}es}}{11}{chapter.3}}
\newlabel{atualizacoes}{{3}{11}{Atualizações}{chapter.3}{}}
\@writefile{toc}{\contentsline {section}{\numberline {3.1}Pedidos}{11}{section.3.1}}
\newlabel{menu_pedidos}{{3.1}{11}{Pedidos}{section.3.1}{}}
\@writefile{toc}{\contentsline {subsection}{\numberline {3.1.1}Pedidos de Venda}{11}{subsection.3.1.1}}
\newlabel{tela_pedido_venda}{{3.1.1}{12}{Pedidos de Venda}{subsection.3.1.1}{}}
\BKM@entry{id=13,dest={73756273656374696F6E2E332E322E31},srcline={371}}{446F63756D656E746F2064652053615C3335356461}
\@writefile{toc}{\contentsline {section}{\numberline {3.2}Faturamento}{13}{section.3.2}}
\newlabel{menu_fat}{{3.2}{13}{Faturamento}{section.3.2}{}}
\@writefile{toc}{\contentsline {subsection}{\numberline {3.2.1}Documento de Sa\IeC {\'\i }da}{13}{subsection.3.2.1}}
\BKM@entry{id=14,dest={73756273656374696F6E2E332E322E32},srcline={399}}{4E666520536566617A}
\newlabel{tela_docsaida_param}{{3.2.1}{14}{Documento de Saída}{subsection.3.2.1}{}}
\@writefile{toc}{\contentsline {subsection}{\numberline {3.2.2}Nfe Sefaz}{14}{subsection.3.2.2}}
\newlabel{tela_nfesefaz}{{3.2.2}{15}{Nfe Sefaz}{subsection.3.2.2}{}}
\newlabel{transmissao}{{3.2.2}{16}{Nfe Sefaz}{subsection.3.2.2}{}}
\newlabel{monitor}{{3.2.2}{17}{Nfe Sefaz}{subsection.3.2.2}{}}
\newlabel{legenda}{{3.2.2}{18}{Nfe Sefaz}{subsection.3.2.2}{}}
\newlabel{legenda2}{{3.2.2}{18}{Nfe Sefaz}{subsection.3.2.2}{}}
\BKM@entry{id=15,dest={636861707465722E34},srcline={447}}{52656C61745C33363372696F73}
\BKM@entry{id=16,dest={73656374696F6E2E342E31},srcline={458}}{526573756C742E2056656E64617320582044617461}
\BKM@entry{id=17,dest={73656374696F6E2E342E32},srcline={474}}{526573756C742E2056656E6461732058204672657465}
\@writefile{toc}{\setlength  {\cftchapterindent }{0em} \setlength  {\cftchapternumwidth }{\cftlastnumwidth }}
\@writefile{toc}{\contentsline {chapter}{\chapternumberline {4}\MakeTextUppercase  {Relat\IeC {\'o}rios}}{19}{chapter.4}}
\newlabel{relatorios}{{4}{19}{Relatórios}{chapter.4}{}}
\newlabel{menu_relatorio}{{4}{19}{Relatórios}{chapter.4}{}}
\@writefile{toc}{\contentsline {section}{\numberline {4.1}Result. Vendas X Data}{19}{section.4.1}}
\newlabel{result_vendas_data}{{4.1}{19}{Result. Vendas X Data}{section.4.1}{}}
\@writefile{toc}{\contentsline {section}{\numberline {4.2}Result. Vendas X Frete}{19}{section.4.2}}
\newlabel{result_vendas_data}{{4.1}{20}{Result. Vendas X Data}{section.4.1}{}}
\newlabel{result_vendas_frete}{{4.2}{20}{Result. Vendas X Frete}{section.4.2}{}}
\newlabel{result_vendas_frete}{{4.2}{20}{Result. Vendas X Frete}{section.4.2}{}}
\BKM@entry{id=18,dest={636861707465722E35},srcline={491}}{4D697363656C5C3334326E6561}
\BKM@entry{id=19,dest={73656374696F6E2E352E31},srcline={496}}{416A7573746520646520437573746F}
\@writefile{toc}{\setlength  {\cftchapterindent }{0em} \setlength  {\cftchapternumwidth }{\cftlastnumwidth }}
\@writefile{toc}{\contentsline {chapter}{\chapternumberline {5}\MakeTextUppercase  {Miscel\IeC {\^a}nea}}{21}{chapter.5}}
\@writefile{toc}{\contentsline {section}{\numberline {5.1}Ajuste de Custo}{21}{section.5.1}}
\newlabel{menu_ajustecusto}{{5.1}{21}{Ajuste de Custo}{section.5.1}{}}
\newlabel{tela_ajustecusto}{{5.1}{22}{Ajuste de Custo}{section.5.1}{}}
\newlabel{tela_ajustecusto}{{5.1}{22}{Ajuste de Custo}{section.5.1}{}}
\newlabel{LastPage}{{}{22}{}{page.22}{}}
\xdef\lastpage@lastpage{22}
\xdef\lastpage@lastpageHy{22}
\bibstyle{abntex2-alf}
\memsetcounter{lastsheet}{22}
\memsetcounter{lastpage}{22}
