\relax 
\providecommand\hyper@newdestlabel[2]{}
\providecommand\BKM@entry[2]{}
\providecommand\zref@newlabel[2]{}
\providecommand*{\memsetcounter}[2]{}
\providecommand\HyperFirstAtBeginDocument{\AtBeginDocument}
\HyperFirstAtBeginDocument{\ifx\hyper@anchor\@undefined
\global\let\oldcontentsline\contentsline
\gdef\contentsline#1#2#3#4{\oldcontentsline{#1}{#2}{#3}}
\global\let\oldnewlabel\newlabel
\gdef\newlabel#1#2{\newlabelxx{#1}#2}
\gdef\newlabelxx#1#2#3#4#5#6{\oldnewlabel{#1}{{#2}{#3}}}
\AtEndDocument{\ifx\hyper@anchor\@undefined
\let\contentsline\oldcontentsline
\let\newlabel\oldnewlabel
\fi}
\fi}
\global\let\hyper@last\relax 
\gdef\HyperFirstAtBeginDocument#1{#1}
\providecommand\HyField@AuxAddToFields[1]{}
\providecommand\HyField@AuxAddToCoFields[2]{}
\catcode `"\active 
\citation{abnt-url-package=url}
\providecommand\acro@used@once[4]{}
\providecommand\acro@used@twice[4]{}
\providecommand\acro@pages[2]{}
\providecommand\acro@rerun@check{}
\providecommand\acro@print@list{}
\@writefile{toc}{\changetocdepth  {4}}
\select@language{brazil}
\@writefile{toc}{\select@language{brazil}}
\@writefile{lof}{\select@language{brazil}}
\@writefile{lot}{\select@language{brazil}}
\BKM@entry{id=1,dest={746F632E30},srcline={183}}{53756D5C33343172696F}
\@writefile{toc}{\setlength  {\cftchapterindent }{\cftlastnumwidth } \setlength  {\cftchapternumwidth }{2em}}
\BKM@entry{id=2,dest={636861707465722E31},srcline={196}}{436F6E686563656E646F206F204D5C33363364756C6F20436F6D70726173}
\@writefile{toc}{\setlength  {\cftchapterindent }{0em} \setlength  {\cftchapternumwidth }{\cftlastnumwidth }}
\@writefile{toc}{\contentsline {chapter}{\chapternumberline {1}\MakeTextUppercase  {Conhecendo o M\IeC {\'o}dulo Compras}}{3}{chapter.1}}
\newlabel{compras}{{1}{3}{Conhecendo o Módulo Compras}{chapter.1}{}}
\BKM@entry{id=3,dest={73656374696F6E2E312E31},srcline={234}}{466C75786F204F7065726163696F6E616C20646F20436F6D70726173}
\@writefile{toc}{\contentsline {section}{\numberline {1.1}Fluxo Operacional do Compras}{4}{section.1.1}}
\newlabel{sigacom_fluxo1}{{1.1}{5}{Fluxo Operacional do Compras}{section.1.1}{}}
\BKM@entry{id=4,dest={636861707465722E32},srcline={249}}{5574696C697A616E646F206F20416D6269656E7465}
\BKM@entry{id=5,dest={73656374696F6E2E322E31},srcline={255}}{4163657373616E646F206F2050726F7468657573}
\BKM@entry{id=6,dest={73656374696F6E2E322E32},srcline={267}}{54656C6120496E696369616C}
\@writefile{toc}{\setlength  {\cftchapterindent }{0em} \setlength  {\cftchapternumwidth }{\cftlastnumwidth }}
\@writefile{toc}{\contentsline {chapter}{\chapternumberline {2}\MakeTextUppercase  {Utilizando o Ambiente}}{7}{chapter.2}}
\newlabel{ambiente}{{2}{7}{Utilizando o Ambiente}{chapter.2}{}}
\@writefile{toc}{\contentsline {section}{\numberline {2.1}Acessando o Protheus}{7}{section.2.1}}
\newlabel{tela_login}{{2.1}{7}{Acessando o Protheus}{section.2.1}{}}
\BKM@entry{id=7,dest={73656374696F6E2E322E33},srcline={289}}{54726F63616E646F206465204D5C33363364756C6F2F456D70726573612F46696C69616C}
\@writefile{toc}{\contentsline {section}{\numberline {2.2}Tela Inicial}{8}{section.2.2}}
\newlabel{tela_login1}{{2.2}{8}{Tela Inicial}{section.2.2}{}}
\@writefile{toc}{\contentsline {section}{\numberline {2.3}Trocando de M\IeC {\'o}dulo/Empresa/Filial}{8}{section.2.3}}
\newlabel{trocando_mod_emp_fil}{{2.3}{9}{Trocando de Módulo/Empresa/Filial}{section.2.3}{}}
\newlabel{trocando_mod_emp_fil2}{{2.3}{9}{Trocando de Módulo/Empresa/Filial}{section.2.3}{}}
\BKM@entry{id=8,dest={636861707465722E33},srcline={310}}{417475616C697A615C3334375C3336356573}
\BKM@entry{id=9,dest={73656374696F6E2E332E31},srcline={316}}{436164617374726F73}
\BKM@entry{id=10,dest={73756273656374696F6E2E332E312E31},srcline={326}}{436F6E64695C3334375C333635657320646520506167616D656E746F}
\@writefile{toc}{\setlength  {\cftchapterindent }{0em} \setlength  {\cftchapternumwidth }{\cftlastnumwidth }}
\@writefile{toc}{\contentsline {chapter}{\chapternumberline {3}\MakeTextUppercase  {Atualiza\IeC {\c c}\IeC {\~o}es}}{11}{chapter.3}}
\newlabel{atualizacoes}{{3}{11}{Atualizações}{chapter.3}{}}
\@writefile{toc}{\contentsline {section}{\numberline {3.1}Cadastros}{11}{section.3.1}}
\newlabel{menu_cad}{{3.1}{11}{Cadastros}{section.3.1}{}}
\@writefile{toc}{\contentsline {subsection}{\numberline {3.1.1}Condi\IeC {\c c}\IeC {\~o}es de Pagamento}{11}{subsection.3.1.1}}
\BKM@entry{id=11,dest={73756273656374696F6E2E332E312E32},srcline={357}}{556E696461646573206465204D6564696461}
\newlabel{tela_cad_cpag}{{3.1.1}{12}{Condições de Pagamento}{subsection.3.1.1}{}}
\newlabel{tela_cad_cpag_incluir}{{3.1.1}{12}{Condições de Pagamento}{subsection.3.1.1}{}}
\newlabel{tela_cad_cpag_incluir2}{{3.1.1}{12}{Condições de Pagamento}{subsection.3.1.1}{}}
\BKM@entry{id=12,dest={73756273656374696F6E2E332E312E33},srcline={387}}{4C6F63616973206465204573746F717565}
\@writefile{toc}{\contentsline {subsection}{\numberline {3.1.2}Unidades de Medida}{13}{subsection.3.1.2}}
\newlabel{tela_cad_unimedida}{{3.1.2}{13}{Unidades de Medida}{subsection.3.1.2}{}}
\newlabel{tela_cad_unimedida_incluir}{{3.1.2}{13}{Unidades de Medida}{subsection.3.1.2}{}}
\newlabel{tela_cad_unimedida_incluir2}{{3.1.2}{13}{Unidades de Medida}{subsection.3.1.2}{}}
\BKM@entry{id=13,dest={73756273656374696F6E2E332E312E34},srcline={418}}{477275706F2064652050726F6475746F73}
\@writefile{toc}{\contentsline {subsection}{\numberline {3.1.3}Locais de Estoque}{14}{subsection.3.1.3}}
\newlabel{tela_cad_locestoque}{{3.1.3}{14}{Locais de Estoque}{subsection.3.1.3}{}}
\newlabel{tela_cad_locestoque_incluir}{{3.1.3}{14}{Locais de Estoque}{subsection.3.1.3}{}}
\newlabel{tela_cad_locestoque_incluir2}{{3.1.3}{14}{Locais de Estoque}{subsection.3.1.3}{}}
\BKM@entry{id=14,dest={73756273656374696F6E2E332E312E35},srcline={447}}{466F726E656365646F726573}
\@writefile{toc}{\contentsline {subsection}{\numberline {3.1.4}Grupo de Produtos}{15}{subsection.3.1.4}}
\newlabel{tela_cad_gproduto}{{3.1.4}{15}{Grupo de Produtos}{subsection.3.1.4}{}}
\newlabel{tela_cad_gproduto_incluir}{{3.1.4}{15}{Grupo de Produtos}{subsection.3.1.4}{}}
\newlabel{tela_cad_gproduto_incluir2}{{3.1.4}{15}{Grupo de Produtos}{subsection.3.1.4}{}}
\@writefile{toc}{\contentsline {subsection}{\numberline {3.1.5}Fornecedores}{16}{subsection.3.1.5}}
\newlabel{tela_cad_fornec}{{3.1.5}{16}{Fornecedores}{subsection.3.1.5}{}}
\newlabel{tela_cad_fornec_incluir}{{3.1.5}{16}{Fornecedores}{subsection.3.1.5}{}}
\newlabel{tela_cad_fornec_incluir2}{{3.1.5}{16}{Fornecedores}{subsection.3.1.5}{}}
\BKM@entry{id=15,dest={73756273656374696F6E2E332E312E36},srcline={488}}{50726F6475746F73}
\@writefile{toc}{\contentsline {subsection}{\numberline {3.1.6}Produtos}{17}{subsection.3.1.6}}
\newlabel{tela_cad_prod}{{3.1.6}{18}{Produtos}{subsection.3.1.6}{}}
\newlabel{tela_cad_prod_incluir}{{3.1.6}{18}{Produtos}{subsection.3.1.6}{}}
\newlabel{tela_cad_prod_incluir2}{{3.1.6}{18}{Produtos}{subsection.3.1.6}{}}
\BKM@entry{id=16,dest={73756273656374696F6E2E332E312E37},srcline={529}}{416D617272615C3334375C3334336F20477275706F207820466F726E656365646F72}
\newlabel{tela_cad_prod_incluir3}{{3.1.6}{19}{Produtos}{subsection.3.1.6}{}}
\@writefile{toc}{\contentsline {subsection}{\numberline {3.1.7}Amarra\IeC {\c c}\IeC {\~a}o Grupo x Fornecedor}{19}{subsection.3.1.7}}
\newlabel{tela_cad_grupofornec}{{3.1.7}{19}{Amarração Grupo x Fornecedor}{subsection.3.1.7}{}}
\BKM@entry{id=17,dest={73756273656374696F6E2E332E312E38},srcline={556}}{416D617272615C3334375C3334336F2050726F6475746F207820466F726E656365646F72}
\newlabel{tela_cad_grupofornec_incluir}{{3.1.7}{20}{Amarração Grupo x Fornecedor}{subsection.3.1.7}{}}
\newlabel{tela_cad_grupofornec_incluir2}{{3.1.7}{20}{Amarração Grupo x Fornecedor}{subsection.3.1.7}{}}
\@writefile{toc}{\contentsline {subsection}{\numberline {3.1.8}Amarra\IeC {\c c}\IeC {\~a}o Produto x Fornecedor}{20}{subsection.3.1.8}}
\newlabel{tela_cad_prodfornec}{{3.1.8}{20}{Amarração Produto x Fornecedor}{subsection.3.1.8}{}}
\BKM@entry{id=18,dest={73656374696F6E2E332E32},srcline={588}}{536F6C6963697461722F436F746172}
\BKM@entry{id=19,dest={73756273656374696F6E2E332E322E31},srcline={598}}{536F6C69636974615C3334375C333635657320646520436F6D707261}
\newlabel{tela_cad_prodfornec_incluir}{{3.1.8}{21}{Amarração Produto x Fornecedor}{subsection.3.1.8}{}}
\newlabel{tela_cad_prodfornec_incluir2}{{3.1.8}{21}{Amarração Produto x Fornecedor}{subsection.3.1.8}{}}
\@writefile{toc}{\contentsline {section}{\numberline {3.2}Solicitar/Cotar}{21}{section.3.2}}
\newlabel{menu_solicitarcotar}{{3.2}{21}{Solicitar/Cotar}{section.3.2}{}}
\@writefile{toc}{\contentsline {subsection}{\numberline {3.2.1}Solicita\IeC {\c c}\IeC {\~o}es de Compra}{22}{subsection.3.2.1}}
\newlabel{tela_solicot_solicitar}{{3.2.1}{22}{Solicitações de Compra}{subsection.3.2.1}{}}
\newlabel{tela_solicot_solicitar_incluir}{{3.2.1}{22}{Solicitações de Compra}{subsection.3.2.1}{}}
\BKM@entry{id=20,dest={73756273656374696F6E2E332E322E32},srcline={640}}{4765726120436F74615C3334375C3334336F20646520436F6D707261}
\newlabel{tela_solicot_solicitar_incluir2}{{3.2.1}{23}{Solicitações de Compra}{subsection.3.2.1}{}}
\@writefile{toc}{\contentsline {subsection}{\numberline {3.2.2}Gera Cota\IeC {\c c}\IeC {\~a}o de Compra}{23}{subsection.3.2.2}}
\BKM@entry{id=21,dest={73756273656374696F6E2E332E322E33},srcline={662}}{417475616C697A6120436F74615C3334375C3334336F20646520436F6D707261}
\newlabel{tela_solicot_geracot}{{3.2.2}{24}{Gera Cotação de Compra}{subsection.3.2.2}{}}
\newlabel{tela_solicot_geracot2}{{3.2.2}{24}{Gera Cotação de Compra}{subsection.3.2.2}{}}
\@writefile{toc}{\contentsline {subsection}{\numberline {3.2.3}Atualiza Cota\IeC {\c c}\IeC {\~a}o de Compra}{25}{subsection.3.2.3}}
\newlabel{tela_solicot_atualizacot}{{3.2.3}{25}{Atualiza Cotação de Compra}{subsection.3.2.3}{}}
\newlabel{tela_solicot_atualizacot2}{{3.2.3}{25}{Atualiza Cotação de Compra}{subsection.3.2.3}{}}
\newlabel{tela_solicot_atualizacot3}{{3.2.3}{26}{Atualiza Cotação de Compra}{subsection.3.2.3}{}}
\newlabel{tela_solicot_atualizacot4}{{3.2.3}{26}{Atualiza Cotação de Compra}{subsection.3.2.3}{}}
\BKM@entry{id=22,dest={73756273656374696F6E2E332E322E34},srcline={733}}{416E616C69736120436F74615C3334375C3334336F20646520436F6D707261}
\@writefile{toc}{\contentsline {subsection}{\numberline {3.2.4}Analisa Cota\IeC {\c c}\IeC {\~a}o de Compra}{27}{subsection.3.2.4}}
\BKM@entry{id=23,dest={73656374696F6E2E332E33},srcline={762}}{50656469646F7320646520436F6D707261}
\newlabel{tela_solicot_analisacot}{{3.2.4}{28}{Analisa Cotação de Compra}{subsection.3.2.4}{}}
\newlabel{tela_solicot_analisacot_analisar}{{3.2.4}{28}{Analisa Cotação de Compra}{subsection.3.2.4}{}}
\newlabel{tela_solicot_analisacot_analisar2}{{3.2.4}{28}{Analisa Cotação de Compra}{subsection.3.2.4}{}}
\@writefile{toc}{\contentsline {section}{\numberline {3.3}Pedidos de Compra}{28}{section.3.3}}
\newlabel{menu_pedidos}{{3.3}{29}{Pedidos de Compra}{section.3.3}{}}
\newlabel{tela_ped_comp}{{3.3}{29}{Pedidos de Compra}{section.3.3}{}}
\BKM@entry{id=24,dest={73656374696F6E2E332E34},srcline={814}}{4C69626572615C3334375C3334336F20646520446F63756D656E746F73}
\newlabel{tela_ped_comp_botoes}{{3.3}{30}{Pedidos de Compra}{section.3.3}{}}
\newlabel{tela_ped_comp_incluir}{{3.3}{30}{Pedidos de Compra}{section.3.3}{}}
\@writefile{toc}{\contentsline {section}{\numberline {3.4}Libera\IeC {\c c}\IeC {\~a}o de Documentos}{31}{section.3.4}}
\newlabel{menu_liberadctos}{{3.4}{31}{Liberação de Documentos}{section.3.4}{}}
\newlabel{tela_liberadctos}{{3.4}{31}{Liberação de Documentos}{section.3.4}{}}
\newlabel{tela_liberadctos2}{{3.4}{31}{Liberação de Documentos}{section.3.4}{}}
\BKM@entry{id=25,dest={73656374696F6E2E332E35},srcline={858}}{50725C3335312D4E6F746120646520456E7472616461}
\newlabel{tela_liberadctos3}{{3.4}{32}{Liberação de Documentos}{section.3.4}{}}
\newlabel{tela_liberadctos4}{{3.4}{32}{Liberação de Documentos}{section.3.4}{}}
\@writefile{toc}{\contentsline {section}{\numberline {3.5}Pr\IeC {\'e}-Nota de Entrada}{33}{section.3.5}}
\newlabel{menu_prenota}{{3.5}{33}{Pré-Nota de Entrada}{section.3.5}{}}
\newlabel{tela_prenota}{{3.5}{34}{Pré-Nota de Entrada}{section.3.5}{}}
\newlabel{tela_prenota2}{{3.5}{34}{Pré-Nota de Entrada}{section.3.5}{}}
\newlabel{LastPage}{{}{34}{}{page.34}{}}
\xdef\lastpage@lastpage{34}
\xdef\lastpage@lastpageHy{34}
\bibstyle{abntex2-alf}
\memsetcounter{lastsheet}{34}
\memsetcounter{lastpage}{34}
