\relax 
\providecommand\hyper@newdestlabel[2]{}
\providecommand\BKM@entry[2]{}
\providecommand\zref@newlabel[2]{}
\providecommand*{\memsetcounter}[2]{}
\providecommand\HyperFirstAtBeginDocument{\AtBeginDocument}
\HyperFirstAtBeginDocument{\ifx\hyper@anchor\@undefined
\global\let\oldcontentsline\contentsline
\gdef\contentsline#1#2#3#4{\oldcontentsline{#1}{#2}{#3}}
\global\let\oldnewlabel\newlabel
\gdef\newlabel#1#2{\newlabelxx{#1}#2}
\gdef\newlabelxx#1#2#3#4#5#6{\oldnewlabel{#1}{{#2}{#3}}}
\AtEndDocument{\ifx\hyper@anchor\@undefined
\let\contentsline\oldcontentsline
\let\newlabel\oldnewlabel
\fi}
\fi}
\global\let\hyper@last\relax 
\gdef\HyperFirstAtBeginDocument#1{#1}
\providecommand\HyField@AuxAddToFields[1]{}
\providecommand\HyField@AuxAddToCoFields[2]{}
\catcode `"\active 
\citation{abnt-url-package=url}
\providecommand\acro@used@once[4]{}
\providecommand\acro@used@twice[4]{}
\providecommand\acro@pages[2]{}
\providecommand\acro@rerun@check{}
\providecommand\acro@print@list{}
\@writefile{toc}{\changetocdepth  {4}}
\select@language{brazil}
\@writefile{toc}{\select@language{brazil}}
\@writefile{lof}{\select@language{brazil}}
\@writefile{lot}{\select@language{brazil}}
\BKM@entry{id=1,dest={746F632E30},srcline={183}}{53756D5C33343172696F}
\@writefile{toc}{\setlength  {\cftchapterindent }{\cftlastnumwidth } \setlength  {\cftchapternumwidth }{2em}}
\BKM@entry{id=2,dest={636861707465722E31},srcline={196}}{436F6E686563656E646F206F204D5C33363364756C6F20417469766F204669786F}
\@writefile{toc}{\setlength  {\cftchapterindent }{0em} \setlength  {\cftchapternumwidth }{\cftlastnumwidth }}
\@writefile{toc}{\contentsline {chapter}{\chapternumberline {1}\MakeTextUppercase  {Conhecendo o M\IeC {\'o}dulo Ativo Fixo}}{3}{chapter.1}}
\newlabel{ativo_fixo}{{1}{3}{Conhecendo o Módulo Ativo Fixo}{chapter.1}{}}
\BKM@entry{id=3,dest={73656374696F6E2E312E31},srcline={231}}{466C75786F204F7065726163696F6E616C20646F20417469766F204669786F}
\@writefile{toc}{\contentsline {section}{\numberline {1.1}Fluxo Operacional do Ativo Fixo}{4}{section.1.1}}
\newlabel{sigaatf_fluxo_operacional_1}{{1.1}{5}{Fluxo Operacional do Ativo Fixo}{section.1.1}{}}
\newlabel{sigaatf_fluxo_operacional_2}{{1.1}{6}{Fluxo Operacional do Ativo Fixo}{section.1.1}{}}
\BKM@entry{id=4,dest={636861707465722E32},srcline={250}}{5574696C697A616E646F206F20416D6269656E7465}
\BKM@entry{id=5,dest={73656374696F6E2E322E31},srcline={256}}{4163657373616E646F206F2050726F7468657573}
\BKM@entry{id=6,dest={73656374696F6E2E322E32},srcline={268}}{54656C6120496E696369616C}
\@writefile{toc}{\setlength  {\cftchapterindent }{0em} \setlength  {\cftchapternumwidth }{\cftlastnumwidth }}
\@writefile{toc}{\contentsline {chapter}{\chapternumberline {2}\MakeTextUppercase  {Utilizando o Ambiente}}{7}{chapter.2}}
\newlabel{ambiente}{{2}{7}{Utilizando o Ambiente}{chapter.2}{}}
\@writefile{toc}{\contentsline {section}{\numberline {2.1}Acessando o Protheus}{7}{section.2.1}}
\newlabel{tela_login}{{2.1}{7}{Acessando o Protheus}{section.2.1}{}}
\BKM@entry{id=7,dest={73656374696F6E2E322E33},srcline={290}}{54726F63616E646F206465204D5C33363364756C6F2F456D70726573612F46696C69616C}
\@writefile{toc}{\contentsline {section}{\numberline {2.2}Tela Inicial}{8}{section.2.2}}
\newlabel{tela_login1}{{2.2}{8}{Tela Inicial}{section.2.2}{}}
\@writefile{toc}{\contentsline {section}{\numberline {2.3}Trocando de M\IeC {\'o}dulo/Empresa/Filial}{8}{section.2.3}}
\newlabel{trocando_mod_emp_fil}{{2.3}{9}{Trocando de Módulo/Empresa/Filial}{section.2.3}{}}
\BKM@entry{id=8,dest={636861707465722E33},srcline={307}}{417475616C697A615C3334375C3336356573}
\BKM@entry{id=9,dest={73656374696F6E2E332E31},srcline={312}}{436164617374726F73}
\BKM@entry{id=10,dest={73756273656374696F6E2E332E312E31},srcline={321}}{417469766F73}
\@writefile{toc}{\setlength  {\cftchapterindent }{0em} \setlength  {\cftchapternumwidth }{\cftlastnumwidth }}
\@writefile{toc}{\contentsline {chapter}{\chapternumberline {3}\MakeTextUppercase  {Atualiza\IeC {\c c}\IeC {\~o}es}}{11}{chapter.3}}
\newlabel{atualizacoes}{{3}{11}{Atualizações}{chapter.3}{}}
\@writefile{toc}{\contentsline {section}{\numberline {3.1}Cadastros}{11}{section.3.1}}
\newlabel{menu_cad}{{3.1}{11}{Cadastros}{section.3.1}{}}
\@writefile{toc}{\contentsline {subsection}{\numberline {3.1.1}Ativos}{11}{subsection.3.1.1}}
\BKM@entry{id=11,dest={73756273656374696F6E2E332E312E32},srcline={351}}{506C616E6F20646520436F6E746173}
\newlabel{tela_cad_ativo}{{3.1.1}{12}{Ativos}{subsection.3.1.1}{}}
\newlabel{tela_cad_ativo_incluir}{{3.1.1}{12}{Ativos}{subsection.3.1.1}{}}
\@writefile{toc}{\contentsline {subsection}{\numberline {3.1.2}Plano de Contas}{13}{subsection.3.1.2}}
\newlabel{tela_cad_plano_contas}{{3.1.2}{13}{Plano de Contas}{subsection.3.1.2}{}}
\newlabel{tela_cad_plano_contas_incluir}{{3.1.2}{13}{Plano de Contas}{subsection.3.1.2}{}}
\BKM@entry{id=12,dest={73756273656374696F6E2E332E312E33},srcline={380}}{4465736372695C3334375C3334336F20457374656E64696461}
\BKM@entry{id=13,dest={73756273656374696F6E2E332E312E34},srcline={408}}{496E76656E745C33343172696F}
\@writefile{toc}{\contentsline {subsection}{\numberline {3.1.3}Descri\IeC {\c c}\IeC {\~a}o Estendida}{14}{subsection.3.1.3}}
\@writefile{toc}{\contentsline {subsection}{\numberline {3.1.4}Invent\IeC {\'a}rio}{14}{subsection.3.1.4}}
\newlabel{tela_cad_desc_estend}{{3.1.3}{15}{Descrição Estendida}{subsection.3.1.3}{}}
\newlabel{tela_cad_desc_estend_incluir}{{3.1.3}{15}{Descrição Estendida}{subsection.3.1.3}{}}
\BKM@entry{id=14,dest={73756273656374696F6E2E332E312E35},srcline={439}}{436C61737369666963615C3334375C3334336F20646520436F6D70726173}
\newlabel{tela_cad_inventario}{{3.1.4}{16}{Inventário}{subsection.3.1.4}{}}
\newlabel{tela_cad_inventario_incluir}{{3.1.4}{16}{Inventário}{subsection.3.1.4}{}}
\@writefile{toc}{\contentsline {subsection}{\numberline {3.1.5}Classifica\IeC {\c c}\IeC {\~a}o de Compras}{16}{subsection.3.1.5}}
\BKM@entry{id=15,dest={73756273656374696F6E2E332E312E36},srcline={472}}{41705C3336336C696365732064652053656775726F}
\newlabel{tela_cad_classifc_compras}{{3.1.5}{17}{Classificação de Compras}{subsection.3.1.5}{}}
\BKM@entry{id=16,dest={73756273656374696F6E2E332E312E37},srcline={503}}{477275706F2064652042656E73}
\newlabel{tela_cad_classifc_compras_incluir}{{3.1.5}{18}{Classificação de Compras}{subsection.3.1.5}{}}
\@writefile{toc}{\contentsline {subsection}{\numberline {3.1.6}Ap\IeC {\'o}lices de Seguro}{18}{subsection.3.1.6}}
\@writefile{toc}{\contentsline {subsection}{\numberline {3.1.7}Grupo de Bens}{18}{subsection.3.1.7}}
\newlabel{tela_cad_apol_seg}{{3.1.6}{19}{Apólices de Seguro}{subsection.3.1.6}{}}
\newlabel{tela_cad_apol_seg_incluir}{{3.1.6}{19}{Apólices de Seguro}{subsection.3.1.6}{}}
\BKM@entry{id=17,dest={73756273656374696F6E2E332E312E38},srcline={532}}{436164617374726F20646520506573736F6173}
\newlabel{tela_cad_grupo_bens}{{3.1.7}{20}{Grupo de Bens}{subsection.3.1.7}{}}
\newlabel{tela_cad_grupo_bens_incluir}{{3.1.7}{20}{Grupo de Bens}{subsection.3.1.7}{}}
\@writefile{toc}{\contentsline {subsection}{\numberline {3.1.8}Cadastro de Pessoas}{20}{subsection.3.1.8}}
\BKM@entry{id=18,dest={73756273656374696F6E2E332E312E39},srcline={561}}{526573706F6E735C3334317665697320582042656E73}
\newlabel{tela_cad_pessoas}{{3.1.8}{21}{Cadastro de Pessoas}{subsection.3.1.8}{}}
\@writefile{toc}{\contentsline {subsection}{\numberline {3.1.9}Respons\IeC {\'a}veis X Bens}{21}{subsection.3.1.9}}
\BKM@entry{id=19,dest={73656374696F6E2E332E32},srcline={591}}{4D6F76696D656E746F73}
\newlabel{tela_cad_pessoas_incluir}{{3.1.8}{22}{Cadastro de Pessoas}{subsection.3.1.8}{}}
\newlabel{tela_cad_resp_bens}{{3.1.9}{22}{Responsáveis X Bens}{subsection.3.1.9}{}}
\BKM@entry{id=20,dest={73756273656374696F6E2E332E322E31},srcline={601}}{426169786173}
\newlabel{tela_cad_resp_bens_incluir}{{3.1.9}{23}{Responsáveis X Bens}{subsection.3.1.9}{}}
\@writefile{toc}{\contentsline {section}{\numberline {3.2}Movimentos}{23}{section.3.2}}
\newlabel{menu_mov}{{3.2}{23}{Movimentos}{section.3.2}{}}
\@writefile{toc}{\contentsline {subsection}{\numberline {3.2.1}Baixas}{23}{subsection.3.2.1}}
\BKM@entry{id=21,dest={73756273656374696F6E2E332E322E32},srcline={635}}{5472616E736665725C3335326E63696173}
\newlabel{tela_mov_baixas}{{3.2.1}{24}{Baixas}{subsection.3.2.1}{}}
\newlabel{tela_mov_baixas_baixar}{{3.2.1}{24}{Baixas}{subsection.3.2.1}{}}
\@writefile{toc}{\contentsline {subsection}{\numberline {3.2.2}Transfer\IeC {\^e}ncias}{24}{subsection.3.2.2}}
\newlabel{tela_mov_transf}{{3.2.2}{25}{Transferências}{subsection.3.2.2}{}}
\newlabel{tela_mov_transf_param}{{3.2.2}{26}{Transferências}{subsection.3.2.2}{}}
\newlabel{tela_mov_transf_transferir}{{3.2.2}{26}{Transferências}{subsection.3.2.2}{}}
\BKM@entry{id=22,dest={73756273656374696F6E2E332E322E33},srcline={689}}{53696D756C615C3334375C3334336F}
\@writefile{toc}{\contentsline {subsection}{\numberline {3.2.3}Simula\IeC {\c c}\IeC {\~a}o}{27}{subsection.3.2.3}}
\newlabel{tela_mov_simulacao}{{3.2.3}{27}{Simulação}{subsection.3.2.3}{}}
\newlabel{tela_mov_simulacao_param}{{3.2.3}{28}{Simulação}{subsection.3.2.3}{}}
\newlabel{tela_mov_simulacao_param2}{{3.2.3}{28}{Simulação}{subsection.3.2.3}{}}
\newlabel{tela_mov_simulacao_param3}{{3.2.3}{28}{Simulação}{subsection.3.2.3}{}}
\newlabel{tela_mov_simulacao_param4}{{3.2.3}{29}{Simulação}{subsection.3.2.3}{}}
\newlabel{tela_mov_simulacao_param5}{{3.2.3}{29}{Simulação}{subsection.3.2.3}{}}
\BKM@entry{id=23,dest={636861707465722E34},srcline={757}}{52656C61745C33363372696F73}
\@writefile{toc}{\setlength  {\cftchapterindent }{0em} \setlength  {\cftchapternumwidth }{\cftlastnumwidth }}
\@writefile{toc}{\contentsline {chapter}{\chapternumberline {4}\MakeTextUppercase  {Relat\IeC {\'o}rios}}{31}{chapter.4}}
\newlabel{relatorios}{{4}{31}{Relatórios}{chapter.4}{}}
\newlabel{menu_rel}{{4}{31}{Relatórios}{chapter.4}{}}
\newlabel{tela_rel_person}{{4}{32}{Relatórios}{chapter.4}{}}
\newlabel{tela_rel_person_param}{{4}{32}{Relatórios}{chapter.4}{}}
\newlabel{tela_rel_person_param2}{{4}{33}{Relatórios}{chapter.4}{}}
\BKM@entry{id=24,dest={636861707465722E35},srcline={813}}{4D697363656C5C3334326E6561}
\BKM@entry{id=25,dest={73656374696F6E2E352E31},srcline={824}}{50726F63657373616D656E746F73}
\BKM@entry{id=26,dest={73756273656374696F6E2E352E312E31},srcline={832}}{435C3334316C63756C6F204D656E73616C}
\@writefile{toc}{\setlength  {\cftchapterindent }{0em} \setlength  {\cftchapternumwidth }{\cftlastnumwidth }}
\@writefile{toc}{\contentsline {chapter}{\chapternumberline {5}\MakeTextUppercase  {Miscel\IeC {\^a}nea}}{35}{chapter.5}}
\newlabel{painel}{{5}{35}{Miscelânea}{chapter.5}{}}
\newlabel{menu_miscelanea}{{5}{35}{Miscelânea}{chapter.5}{}}
\@writefile{toc}{\contentsline {section}{\numberline {5.1}Processamentos}{35}{section.5.1}}
\newlabel{menu_misc_processamentos}{{5.1}{35}{Processamentos}{section.5.1}{}}
\@writefile{toc}{\contentsline {subsection}{\numberline {5.1.1}C\IeC {\'a}lculo Mensal}{35}{subsection.5.1.1}}
\newlabel{tela_processamento_calcmensal}{{5.1.1}{36}{Cálculo Mensal}{subsection.5.1.1}{}}
\BKM@entry{id=27,dest={73756273656374696F6E2E352E312E32},srcline={881}}{446573635C3334316C63756C6F204D656E73616C}
\newlabel{tela_processamento_calcmensal2}{{5.1.1}{37}{Cálculo Mensal}{subsection.5.1.1}{}}
\@writefile{toc}{\contentsline {subsection}{\numberline {5.1.2}Desc\IeC {\'a}lculo Mensal}{37}{subsection.5.1.2}}
\BKM@entry{id=28,dest={73756273656374696F6E2E352E312E33},srcline={920}}{426C6F717565692F446573626C6F717565696F2064652044657072656369615C3334375C3334336F}
\newlabel{tela_processamento_descalcmensal}{{5.1.2}{38}{Descálculo Mensal}{subsection.5.1.2}{}}
\@writefile{toc}{\contentsline {subsection}{\numberline {5.1.3}Bloquei/Desbloqueio de Deprecia\IeC {\c c}\IeC {\~a}o}{38}{subsection.5.1.3}}
\BKM@entry{id=29,dest={73756273656374696F6E2E352E312E34},srcline={949}}{56697261646120416E75616C}
\newlabel{tela_processamento_bloqdesbloq}{{5.1.3}{39}{Bloquei/Desbloqueio de Depreciação}{subsection.5.1.3}{}}
\@writefile{toc}{\contentsline {subsection}{\numberline {5.1.4}Virada Anual}{39}{subsection.5.1.4}}
\newlabel{tela_processamento_virada_anual}{{5.1.4}{40}{Virada Anual}{subsection.5.1.4}{}}
\BKM@entry{id=30,dest={73656374696F6E2E352E32},srcline={992}}{41636572746F73}
\BKM@entry{id=31,dest={73756273656374696F6E2E352E322E31},srcline={1001}}{416C746572615C3334375C3334336F206E6120746178612064652064657072656369615C3334375C3334336F}
\newlabel{tela_processamento_virada_anual2}{{5.1.4}{41}{Virada Anual}{subsection.5.1.4}{}}
\@writefile{toc}{\contentsline {section}{\numberline {5.2}Acertos}{41}{section.5.2}}
\newlabel{menu_misc_acertos}{{5.2}{41}{Acertos}{section.5.2}{}}
\@writefile{toc}{\contentsline {subsection}{\numberline {5.2.1}Altera\IeC {\c c}\IeC {\~a}o na taxa de deprecia\IeC {\c c}\IeC {\~a}o}{41}{subsection.5.2.1}}
\BKM@entry{id=32,dest={73756273656374696F6E2E352E322E32},srcline={1034}}{56657269666963615C3334375C3334336F20646520496E746567726964616465}
\newlabel{tela_acertos_alt_taxa_depre}{{5.2.1}{42}{Alteração na taxa de depreciação}{subsection.5.2.1}{}}
\BKM@entry{id=33,dest={73756273656374696F6E2E352E322E33},srcline={1066}}{526566617A2053616C646F73}
\@writefile{toc}{\contentsline {subsection}{\numberline {5.2.2}Verifica\IeC {\c c}\IeC {\~a}o de Integridade}{43}{subsection.5.2.2}}
\newlabel{tela_acertos_verific_integr}{{5.2.2}{43}{Verificação de Integridade}{subsection.5.2.2}{}}
\@writefile{toc}{\contentsline {subsection}{\numberline {5.2.3}Refaz Saldos}{43}{subsection.5.2.3}}
\newlabel{tela_acertos_refaz_saldos}{{5.2.3}{44}{Refaz Saldos}{subsection.5.2.3}{}}
\newlabel{LastPage}{{}{44}{}{page.44}{}}
\xdef\lastpage@lastpage{44}
\xdef\lastpage@lastpageHy{44}
\bibstyle{abntex2-alf}
\memsetcounter{lastsheet}{44}
\memsetcounter{lastpage}{44}
