\relax 
\providecommand\hyper@newdestlabel[2]{}
\providecommand\BKM@entry[2]{}
\providecommand\zref@newlabel[2]{}
\providecommand*{\memsetcounter}[2]{}
\providecommand\HyperFirstAtBeginDocument{\AtBeginDocument}
\HyperFirstAtBeginDocument{\ifx\hyper@anchor\@undefined
\global\let\oldcontentsline\contentsline
\gdef\contentsline#1#2#3#4{\oldcontentsline{#1}{#2}{#3}}
\global\let\oldnewlabel\newlabel
\gdef\newlabel#1#2{\newlabelxx{#1}#2}
\gdef\newlabelxx#1#2#3#4#5#6{\oldnewlabel{#1}{{#2}{#3}}}
\AtEndDocument{\ifx\hyper@anchor\@undefined
\let\contentsline\oldcontentsline
\let\newlabel\oldnewlabel
\fi}
\fi}
\global\let\hyper@last\relax 
\gdef\HyperFirstAtBeginDocument#1{#1}
\providecommand\HyField@AuxAddToFields[1]{}
\providecommand\HyField@AuxAddToCoFields[2]{}
\catcode `"\active 
\citation{abnt-url-package=url}
\providecommand\acro@used@once[4]{}
\providecommand\acro@used@twice[4]{}
\providecommand\acro@pages[2]{}
\providecommand\acro@rerun@check{}
\providecommand\acro@print@list{}
\@writefile{toc}{\changetocdepth  {4}}
\select@language{brazil}
\@writefile{toc}{\select@language{brazil}}
\@writefile{lof}{\select@language{brazil}}
\@writefile{lot}{\select@language{brazil}}
\BKM@entry{id=1,dest={746F632E30},srcline={197}}{53756D5C33343172696F}
\@writefile{toc}{\setlength  {\cftchapterindent }{\cftlastnumwidth } \setlength  {\cftchapternumwidth }{2em}}
\BKM@entry{id=2,dest={636861707465722E31},srcline={228}}{436F6E686563656E646F206F204D5C33363364756C6F2046696E616E636569726F}
\BKM@entry{id=3,dest={73656374696F6E2E312E31},srcline={243}}{45737472757475726120646F2046696E616E636569726F}
\@writefile{toc}{\setlength  {\cftchapterindent }{0em} \setlength  {\cftchapternumwidth }{\cftlastnumwidth }}
\@writefile{toc}{\contentsline {chapter}{\chapternumberline {1}\MakeTextUppercase  {Conhecendo o M\IeC {\'o}dulo Financeiro}}{5}{chapter.1}}
\newlabel{financeiro}{{1}{5}{Conhecendo o Módulo Financeiro}{chapter.1}{}}
\@writefile{toc}{\contentsline {section}{\numberline {1.1}Estrutura do Financeiro}{5}{section.1.1}}
\BKM@entry{id=4,dest={73656374696F6E2E312E32},srcline={293}}{466C75786F206465204361697861}
\BKM@entry{id=5,dest={73656374696F6E2E312E33},srcline={304}}{436F6E7461732061205061676172}
\@writefile{toc}{\contentsline {section}{\numberline {1.2}Fluxo de Caixa}{7}{section.1.2}}
\@writefile{toc}{\contentsline {section}{\numberline {1.3}Contas a Pagar}{7}{section.1.3}}
\BKM@entry{id=6,dest={73756273656374696F6E2E312E332E31},srcline={336}}{436F6E73756C7461732061205061676172}
\newlabel{sigafin_fluxo_contas_a_pagar}{{1.3}{8}{Contas a Pagar}{section.1.3}{}}
\BKM@entry{id=7,dest={73656374696F6E2E312E34},srcline={346}}{436F6E74617320612052656365626572}
\BKM@entry{id=8,dest={73756273656374696F6E2E312E342E31},srcline={375}}{436F6E73756C74617320612052656365626572}
\@writefile{toc}{\contentsline {subsection}{\numberline {1.3.1}Consultas a Pagar}{9}{subsection.1.3.1}}
\@writefile{toc}{\contentsline {section}{\numberline {1.4}Contas a Receber}{9}{section.1.4}}
\newlabel{sigafin_fluxo_contas_a_receber}{{1.4}{10}{Contas a Receber}{section.1.4}{}}
\@writefile{toc}{\contentsline {subsection}{\numberline {1.4.1}Consultas a Receber}{10}{subsection.1.4.1}}
\BKM@entry{id=9,dest={636861707465722E32},srcline={388}}{5574696C697A616E646F206F20416D6269656E7465}
\BKM@entry{id=10,dest={73656374696F6E2E322E31},srcline={394}}{4163657373616E646F206F2050726F7468657573}
\BKM@entry{id=11,dest={73656374696F6E2E322E32},srcline={406}}{54656C6120696E696369616C}
\@writefile{toc}{\setlength  {\cftchapterindent }{0em} \setlength  {\cftchapternumwidth }{\cftlastnumwidth }}
\@writefile{toc}{\contentsline {chapter}{\chapternumberline {2}\MakeTextUppercase  {Utilizando o Ambiente}}{11}{chapter.2}}
\newlabel{ambiente}{{2}{11}{Utilizando o Ambiente}{chapter.2}{}}
\@writefile{toc}{\contentsline {section}{\numberline {2.1}Acessando o Protheus}{11}{section.2.1}}
\newlabel{tela_login1}{{2.1}{11}{Acessando o Protheus}{section.2.1}{}}
\BKM@entry{id=12,dest={73656374696F6E2E322E33},srcline={429}}{54726F63616E646F206465204D5C33363364756C6F2F456D70726573612F46696C69616C}
\@writefile{toc}{\contentsline {section}{\numberline {2.2}Tela inicial}{12}{section.2.2}}
\newlabel{tela_login1}{{2.2}{12}{Tela inicial}{section.2.2}{}}
\@writefile{toc}{\contentsline {section}{\numberline {2.3}Trocando de M\IeC {\'o}dulo/Empresa/Filial}{13}{section.2.3}}
\newlabel{trocando_mod_emp_fil}{{2.3}{13}{Trocando de Módulo/Empresa/Filial}{section.2.3}{}}
\newlabel{trocando_mod_emp_fil2}{{2.3}{13}{Trocando de Módulo/Empresa/Filial}{section.2.3}{}}
\BKM@entry{id=13,dest={636861707465722E33},srcline={449}}{417475616C697A615C3334375C3336356573}
\BKM@entry{id=14,dest={73656374696F6E2E332E31},srcline={454}}{436164617374726F73}
\BKM@entry{id=15,dest={73756273656374696F6E2E332E312E31},srcline={466}}{466F726E656365646F726573}
\@writefile{toc}{\setlength  {\cftchapterindent }{0em} \setlength  {\cftchapternumwidth }{\cftlastnumwidth }}
\@writefile{toc}{\contentsline {chapter}{\chapternumberline {3}\MakeTextUppercase  {Atualiza\IeC {\c c}\IeC {\~o}es}}{15}{chapter.3}}
\newlabel{atualizacoes}{{3}{15}{Atualizações}{chapter.3}{}}
\@writefile{toc}{\contentsline {section}{\numberline {3.1}Cadastros}{15}{section.3.1}}
\newlabel{menu_cad}{{3.1}{15}{Cadastros}{section.3.1}{}}
\BKM@entry{id=16,dest={73756273656374696F6E2E332E312E32},srcline={483}}{436C69656E746573}
\@writefile{toc}{\contentsline {subsection}{\numberline {3.1.1}Fornecedores}{16}{subsection.3.1.1}}
\newlabel{tela_cad_fornecedor}{{3.1.1}{16}{Fornecedores}{subsection.3.1.1}{}}
\newlabel{tela_cad_fornecedor}{{3.1.1}{16}{Fornecedores}{subsection.3.1.1}{}}
\@writefile{toc}{\contentsline {subsection}{\numberline {3.1.2}Clientes}{17}{subsection.3.1.2}}
\newlabel{tela_cad_cliente}{{3.1.2}{17}{Clientes}{subsection.3.1.2}{}}
\newlabel{tela_cad_cl_preenchimento}{{3.1.2}{17}{Clientes}{subsection.3.1.2}{}}
\BKM@entry{id=17,dest={73756273656374696F6E2E332E312E33},srcline={503}}{42616E636F73}
\@writefile{toc}{\contentsline {subsection}{\numberline {3.1.3}Bancos}{18}{subsection.3.1.3}}
\newlabel{tela_cad_banco}{{3.1.3}{18}{Bancos}{subsection.3.1.3}{}}
\newlabel{tela_cad_bc_preenchimento}{{3.1.3}{18}{Bancos}{subsection.3.1.3}{}}
\BKM@entry{id=18,dest={73756273656374696F6E2E332E312E34},srcline={533}}{4E61747572657A6173}
\@writefile{toc}{\contentsline {subsection}{\numberline {3.1.4}Naturezas}{19}{subsection.3.1.4}}
\newlabel{tela_pad_nat}{{3.1.4}{19}{Naturezas}{subsection.3.1.4}{}}
\BKM@entry{id=19,dest={73756273656374696F6E2E332E312E35},srcline={566}}{436F6E64695C3334375C333635657320646520506167616D656E746F}
\BKM@entry{id=20,dest={73656374696F6E2E332E32},srcline={585}}{436F6E7461732061205061676172}
\newlabel{tela_estrut_nat}{{3.1.4}{20}{Naturezas}{subsection.3.1.4}{}}
\@writefile{toc}{\contentsline {subsection}{\numberline {3.1.5}Condi\IeC {\c c}\IeC {\~o}es de Pagamento}{20}{subsection.3.1.5}}
\newlabel{tela_cad_condpag}{{3.1.5}{21}{Condições de Pagamento}{subsection.3.1.5}{}}
\newlabel{tela_cad_condpag_preenchimento}{{3.1.5}{21}{Condições de Pagamento}{subsection.3.1.5}{}}
\@writefile{toc}{\contentsline {section}{\numberline {3.2}Contas a Pagar}{21}{section.3.2}}
\newlabel{menu_ctas_pagar}{{3.2}{21}{Contas a Pagar}{section.3.2}{}}
\newlabel{tela_func_ctas_pagar}{{3.2}{22}{Contas a Pagar}{section.3.2}{}}
\newlabel{tela_func_ctas_pagar_botoes}{{3.2}{22}{Contas a Pagar}{section.3.2}{}}
\newlabel{tela_func_ctas_pagar_preenchimento}{{3.2}{22}{Contas a Pagar}{section.3.2}{}}
\BKM@entry{id=21,dest={73756273656374696F6E2E332E322E31},srcline={626}}{446573646F6272616D656E746F20646520545C33353574756C6F}
\@writefile{toc}{\contentsline {subsection}{\numberline {3.2.1}Desdobramento de T\IeC {\'\i }tulo}{23}{subsection.3.2.1}}
\newlabel{tela_desdob}{{3.2.1}{23}{Desdobramento de Título}{subsection.3.2.1}{}}
\BKM@entry{id=22,dest={73756273656374696F6E2E332E322E32},srcline={657}}{466174757261}
\newlabel{tela_func_ctas_pagar_leg}{{3.2.1}{24}{Desdobramento de Título}{subsection.3.2.1}{}}
\@writefile{toc}{\contentsline {subsection}{\numberline {3.2.2}Fatura}{24}{subsection.3.2.2}}
\newlabel{tela_func_ctas_pagar_fat}{{3.2.2}{25}{Fatura}{subsection.3.2.2}{}}
\newlabel{tela_func_ctas_pagar_fat2}{{3.2.2}{25}{Fatura}{subsection.3.2.2}{}}
\newlabel{tela_fun_ctas_pagar_fat3}{{3.2.2}{25}{Fatura}{subsection.3.2.2}{}}
\BKM@entry{id=23,dest={73756273656374696F6E2E332E322E33},srcline={689}}{436F6D70656E73615C3334375C3334336F}
\BKM@entry{id=24,dest={73756273656374696F6E2E332E322E34},srcline={717}}{4261697861204D616E75616C}
\newlabel{tela_func_ctas_pagar_fat4}{{3.2.2}{26}{Fatura}{subsection.3.2.2}{}}
\@writefile{toc}{\contentsline {subsection}{\numberline {3.2.3}Compensa\IeC {\c c}\IeC {\~a}o}{26}{subsection.3.2.3}}
\newlabel{tela_func_ctas_pagar_comp}{{3.2.3}{26}{Compensação}{subsection.3.2.3}{}}
\newlabel{tela_func_ctas_pagar_comp2}{{3.2.3}{27}{Compensação}{subsection.3.2.3}{}}
\newlabel{tela_func_ctas_pagar_comp3}{{3.2.3}{27}{Compensação}{subsection.3.2.3}{}}
\@writefile{toc}{\contentsline {subsection}{\numberline {3.2.4}Baixa Manual}{27}{subsection.3.2.4}}
\newlabel{tela_func_ctas_pagar_baixamanual}{{3.2.4}{27}{Baixa Manual}{subsection.3.2.4}{}}
\BKM@entry{id=25,dest={73756273656374696F6E2E332E322E35},srcline={727}}{4D6F7469766F206461204261697861}
\BKM@entry{id=26,dest={73756273656374696F6E2E332E322E36},srcline={768}}{43616E63656C6172204261697861}
\BKM@entry{id=27,dest={73756273656374696F6E2E332E322E37},srcline={778}}{4261697861204175746F6D5C33343174696361}
\@writefile{toc}{\contentsline {subsection}{\numberline {3.2.5}Motivo da Baixa}{28}{subsection.3.2.5}}
\newlabel{menu_tab_mot_baixas}{{3.2.5}{28}{Motivo da Baixa}{subsection.3.2.5}{}}
\newlabel{tela_tab_mot_baixas}{{3.2.5}{28}{Motivo da Baixa}{subsection.3.2.5}{}}
\newlabel{tela_tab_mot_baixas_insert}{{3.2.5}{28}{Motivo da Baixa}{subsection.3.2.5}{}}
\@writefile{toc}{\contentsline {subsection}{\numberline {3.2.6}Cancelar Baixa}{28}{subsection.3.2.6}}
\newlabel{tela_tab_mot_baixas_edit}{{3.2.5}{29}{Motivo da Baixa}{subsection.3.2.5}{}}
\newlabel{tela_func_ctas_pagar_canc_baixa}{{3.2.6}{29}{Cancelar Baixa}{subsection.3.2.6}{}}
\@writefile{toc}{\contentsline {subsection}{\numberline {3.2.7}Baixa Autom\IeC {\'a}tica}{29}{subsection.3.2.7}}
\newlabel{tela_func_ctas_pagar_baixa_autom}{{3.2.7}{29}{Baixa Automática}{subsection.3.2.7}{}}
\newlabel{tela_func_ctas_pagar_baixa_autom2}{{3.2.7}{29}{Baixa Automática}{subsection.3.2.7}{}}
\BKM@entry{id=28,dest={73756273656374696F6E2E332E322E38},srcline={824}}{476572616E646F206172717569766F20434E4142}
\newlabel{tela_func_ctas_pagar_baixa_autom3}{{3.2.7}{30}{Baixa Automática}{subsection.3.2.7}{}}
\newlabel{tela_func_ctas_pagar_bordero}{{3.2.7}{30}{Baixa Automática}{subsection.3.2.7}{}}
\newlabel{tela_func_ctas_pagar_bordero2}{{3.2.7}{30}{Baixa Automática}{subsection.3.2.7}{}}
\@writefile{toc}{\contentsline {subsection}{\numberline {3.2.8}Gerando arquivo CNAB}{30}{subsection.3.2.8}}
\newlabel{tela_func_ctas_pagar_bordero3}{{3.2.7}{31}{Baixa Automática}{subsection.3.2.7}{}}
\newlabel{tela_func_ctas_pagar_cnab}{{3.2.8}{31}{Gerando arquivo CNAB}{subsection.3.2.8}{}}
\newlabel{tela_func_ctas_pagar_cnab2}{{3.2.8}{31}{Gerando arquivo CNAB}{subsection.3.2.8}{}}
\BKM@entry{id=29,dest={73756273656374696F6E2E332E322E39},srcline={868}}{4172717569766F206465205265746F726E6F}
\newlabel{tela_func_ctas_pagar_cnab4}{{3.2.8}{32}{Gerando arquivo CNAB}{subsection.3.2.8}{}}
\newlabel{tela_func_ctas_pagar_cnab5}{{3.2.8}{32}{Gerando arquivo CNAB}{subsection.3.2.8}{}}
\@writefile{toc}{\contentsline {subsection}{\numberline {3.2.9}Arquivo de Retorno}{32}{subsection.3.2.9}}
\BKM@entry{id=30,dest={73656374696F6E2E332E33},srcline={886}}{436F6E74617320612052656365626572}
\BKM@entry{id=31,dest={73756273656374696F6E2E332E332E31},srcline={910}}{496E636C75697220756D20545C33353574756C6F204D616E75616C6D656E7465}
\newlabel{tela_func_ctas_pagar_arq_ret}{{3.2.9}{33}{Arquivo de Retorno}{subsection.3.2.9}{}}
\newlabel{tela_func_ctas_pagar_arq_ret2}{{3.2.9}{33}{Arquivo de Retorno}{subsection.3.2.9}{}}
\@writefile{toc}{\contentsline {section}{\numberline {3.3}Contas a Receber}{33}{section.3.3}}
\newlabel{menu_ctas_receber}{{3.3}{33}{Contas a Receber}{section.3.3}{}}
\newlabel{tela_func_ctas_receber}{{3.3}{33}{Contas a Receber}{section.3.3}{}}
\newlabel{tela_func_ctas_receber_botoes}{{3.3}{34}{Contas a Receber}{section.3.3}{}}
\@writefile{toc}{\contentsline {subsection}{\numberline {3.3.1}Incluir um T\IeC {\'\i }tulo Manualmente}{34}{subsection.3.3.1}}
\newlabel{tela_func_ctas_receber_incluir_botao}{{3.3.1}{34}{Incluir um Título Manualmente}{subsection.3.3.1}{}}
\newlabel{tela_func_ctas_receber_incluir}{{3.3.1}{34}{Incluir um Título Manualmente}{subsection.3.3.1}{}}
\newlabel{tela_func_ctas_receber_incluir2}{{3.3.1}{34}{Incluir um Título Manualmente}{subsection.3.3.1}{}}
\BKM@entry{id=32,dest={73756273656374696F6E2E332E332E32},srcline={948}}{446573646F6272616D656E746F20646520545C33353574756C6F20}
\@writefile{toc}{\contentsline {subsection}{\numberline {3.3.2}Desdobramento de T\IeC {\'\i }tulo }{35}{subsection.3.3.2}}
\BKM@entry{id=33,dest={73756273656374696F6E2E332E332E33},srcline={989}}{466174757261}
\newlabel{tela_func_ctas_receber_desdob}{{3.3.2}{36}{Desdobramento de Título}{subsection.3.3.2}{}}
\newlabel{tela_func_ctas_receber_leg}{{3.3.2}{36}{Desdobramento de Título}{subsection.3.3.2}{}}
\newlabel{tela_func_ctas_receber_leg2}{{3.3.2}{36}{Desdobramento de Título}{subsection.3.3.2}{}}
\@writefile{toc}{\contentsline {subsection}{\numberline {3.3.3}Fatura}{37}{subsection.3.3.3}}
\newlabel{tela_func_ctas_receber_fat}{{3.3.3}{37}{Fatura}{subsection.3.3.3}{}}
\newlabel{tela_func_ctas_receber_fat3}{{3.3.3}{37}{Fatura}{subsection.3.3.3}{}}
\BKM@entry{id=34,dest={73756273656374696F6E2E332E332E34},srcline={1018}}{436F6D70656E73615C3334375C3334336F}
\BKM@entry{id=35,dest={73756273656374696F6E2E332E332E35},srcline={1043}}{4261697861204D616E75616C}
\newlabel{tela_func_ctas_receber_fat4}{{3.3.3}{38}{Fatura}{subsection.3.3.3}{}}
\@writefile{toc}{\contentsline {subsection}{\numberline {3.3.4}Compensa\IeC {\c c}\IeC {\~a}o}{38}{subsection.3.3.4}}
\newlabel{tela_func_ctas_receber_comp}{{3.3.4}{38}{Compensação}{subsection.3.3.4}{}}
\newlabel{tela_func_ctas_receber_comp2}{{3.3.4}{38}{Compensação}{subsection.3.3.4}{}}
\BKM@entry{id=36,dest={73756273656374696F6E2E332E332E36},srcline={1068}}{43616E63656C61722061204261697861}
\newlabel{tela_func_ctas_receber_comp3}{{3.3.4}{39}{Compensação}{subsection.3.3.4}{}}
\@writefile{toc}{\contentsline {subsection}{\numberline {3.3.5}Baixa Manual}{39}{subsection.3.3.5}}
\newlabel{tela_func_ctas_receber_baixa}{{3.3.5}{39}{Baixa Manual}{subsection.3.3.5}{}}
\newlabel{tela_func_ctas_receber_baixa2}{{3.3.5}{39}{Baixa Manual}{subsection.3.3.5}{}}
\BKM@entry{id=37,dest={73756273656374696F6E2E332E332E37},srcline={1078}}{4261697861204175746F6D5C33343174696361}
\BKM@entry{id=38,dest={73756273656374696F6E2E332E332E38},srcline={1104}}{476572616E646F206172717569766F20434E4142}
\@writefile{toc}{\contentsline {subsection}{\numberline {3.3.6}Cancelar a Baixa}{40}{subsection.3.3.6}}
\newlabel{tela_func_ctas_receber_canc_baixa}{{3.3.6}{40}{Cancelar a Baixa}{subsection.3.3.6}{}}
\@writefile{toc}{\contentsline {subsection}{\numberline {3.3.7}Baixa Autom\IeC {\'a}tica}{40}{subsection.3.3.7}}
\newlabel{menu_baixa_autom}{{3.3.7}{40}{Baixa Automática}{subsection.3.3.7}{}}
\newlabel{tela_func_ctas_receber_baixa_autom}{{3.3.7}{40}{Baixa Automática}{subsection.3.3.7}{}}
\newlabel{tela_func_ctas_receber_baixa_autom2}{{3.3.7}{41}{Baixa Automática}{subsection.3.3.7}{}}
\@writefile{toc}{\contentsline {subsection}{\numberline {3.3.8}Gerando arquivo CNAB}{41}{subsection.3.3.8}}
\newlabel{tela_func_ctas_receber_cnab}{{3.3.8}{41}{Gerando arquivo CNAB}{subsection.3.3.8}{}}
\BKM@entry{id=39,dest={73756273656374696F6E2E332E332E39},srcline={1129}}{4172717569766F205265746F726E6F}
\BKM@entry{id=40,dest={73656374696F6E2E332E34},srcline={1140}}{4D6F76696D656E746F732042616E635C33343172696F73}
\BKM@entry{id=41,dest={73756273656374696F6E2E332E342E31},srcline={1150}}{53616C646F732042616E635C33343172696F73}
\BKM@entry{id=42,dest={73756273656374696F6E2E332E342E32},srcline={1157}}{4D6F76696D656E746F2042616E635C33343172696F}
\@writefile{toc}{\contentsline {subsection}{\numberline {3.3.9}Arquivo Retorno}{42}{subsection.3.3.9}}
\newlabel{tela_func_ctas_receber_arq_ret}{{3.3.9}{42}{Arquivo Retorno}{subsection.3.3.9}{}}
\@writefile{toc}{\contentsline {section}{\numberline {3.4}Movimentos Banc\IeC {\'a}rios}{42}{section.3.4}}
\BKM@entry{id=43,dest={73756273656374696F6E2E332E342E33},srcline={1167}}{5472616E736665725C3335326E636961}
\BKM@entry{id=44,dest={73756273656374696F6E2E332E342E34},srcline={1185}}{4D6F76696D656E746F2064697265746F206120706167617220652072656365626572}
\newlabel{menu_mov_banc}{{3.4}{43}{Movimentos Bancários}{section.3.4}{}}
\newlabel{tela_saldo_banc}{{3.4.1}{43}{Saldos Bancários}{subsection.3.4.1}{}}
\@writefile{toc}{\contentsline {subsection}{\numberline {3.4.1}Saldos Banc\IeC {\'a}rios}{43}{subsection.3.4.1}}
\@writefile{toc}{\contentsline {subsection}{\numberline {3.4.2}Movimento Banc\IeC {\'a}rio}{43}{subsection.3.4.2}}
\newlabel{tela_mov_banc}{{3.4.2}{43}{Movimento Bancário}{subsection.3.4.2}{}}
\@writefile{toc}{\contentsline {subsection}{\numberline {3.4.3}Transfer\IeC {\^e}ncia}{43}{subsection.3.4.3}}
\BKM@entry{id=45,dest={73756273656374696F6E2E332E342E35},srcline={1203}}{436F6E63696C69615C3334375C3334336F2042616E635C333431726961}
\newlabel{menu_transf}{{3.4.3}{44}{Transferência}{subsection.3.4.3}{}}
\newlabel{tela_transf}{{3.4.3}{44}{Transferência}{subsection.3.4.3}{}}
\@writefile{toc}{\contentsline {subsection}{\numberline {3.4.4}Movimento direto a pagar e receber}{44}{subsection.3.4.4}}
\newlabel{tela_mov_banc_botoes}{{3.4.4}{44}{Movimento direto a pagar e receber}{subsection.3.4.4}{}}
\newlabel{tela_mov_direto}{{3.4.4}{44}{Movimento direto a pagar e receber}{subsection.3.4.4}{}}
\BKM@entry{id=46,dest={73656374696F6E2E332E35},srcline={1213}}{43616978696E6861}
\BKM@entry{id=47,dest={73756273656374696F6E2E332E352E31},srcline={1227}}{496E636C75735C3334336F2064652043616978696E6861}
\@writefile{toc}{\contentsline {subsection}{\numberline {3.4.5}Concilia\IeC {\c c}\IeC {\~a}o Banc\IeC {\'a}ria}{45}{subsection.3.4.5}}
\newlabel{tela_conc_banc}{{3.4.5}{45}{Conciliação Bancária}{subsection.3.4.5}{}}
\@writefile{toc}{\contentsline {section}{\numberline {3.5}Caixinha}{45}{section.3.5}}
\BKM@entry{id=48,dest={73756273656374696F6E2E332E352E32},srcline={1237}}{5265706F73695C3334375C3334336F}
\newlabel{menu_caixinha}{{3.5}{46}{Caixinha}{section.3.5}{}}
\@writefile{toc}{\contentsline {subsection}{\numberline {3.5.1}Inclus\IeC {\~a}o de Caixinha}{46}{subsection.3.5.1}}
\newlabel{tela_man_caixinha}{{3.5.1}{46}{Inclusão de Caixinha}{subsection.3.5.1}{}}
\BKM@entry{id=49,dest={73756273656374696F6E2E332E352E33},srcline={1252}}{4D6F76696D656E746F73}
\@writefile{toc}{\contentsline {subsection}{\numberline {3.5.2}Reposi\IeC {\c c}\IeC {\~a}o}{47}{subsection.3.5.2}}
\newlabel{menu_repos}{{3.5.2}{47}{Reposição}{subsection.3.5.2}{}}
\newlabel{tela_confirma_repos}{{3.5.2}{47}{Reposição}{subsection.3.5.2}{}}
\@writefile{toc}{\contentsline {subsection}{\numberline {3.5.3}Movimentos}{47}{subsection.3.5.3}}
\newlabel{tela_mov}{{3.5.3}{47}{Movimentos}{subsection.3.5.3}{}}
\BKM@entry{id=50,dest={73756273656374696F6E2E332E352E34},srcline={1283}}{5072657374617220436F6E746173}
\newlabel{tela_mov_incluir}{{3.5.3}{48}{Movimentos}{subsection.3.5.3}{}}
\@writefile{toc}{\contentsline {subsection}{\numberline {3.5.4}Prestar Contas}{48}{subsection.3.5.4}}
\newlabel{tela_prest_contas}{{3.5.4}{48}{Prestar Contas}{subsection.3.5.4}{}}
\BKM@entry{id=51,dest={636861707465722E34},srcline={1301}}{436F6E73756C746173}
\BKM@entry{id=52,dest={73656374696F6E2E342E31},srcline={1306}}{466C75786F206465204361697861}
\BKM@entry{id=53,dest={73656374696F6E2E342E32},srcline={1329}}{466C75786F20646520436169786120706F72204E61747572657A61}
\@writefile{toc}{\setlength  {\cftchapterindent }{0em} \setlength  {\cftchapternumwidth }{\cftlastnumwidth }}
\@writefile{toc}{\contentsline {chapter}{\chapternumberline {4}\MakeTextUppercase  {Consultas}}{51}{chapter.4}}
\newlabel{consultas}{{4}{51}{Consultas}{chapter.4}{}}
\@writefile{toc}{\contentsline {section}{\numberline {4.1}Fluxo de Caixa}{51}{section.4.1}}
\newlabel{menu_fluxo_caixa}{{4.1}{51}{Fluxo de Caixa}{section.4.1}{}}
\newlabel{tela_fluxo_caixa}{{4.1}{51}{Fluxo de Caixa}{section.4.1}{}}
\BKM@entry{id=54,dest={73656374696F6E2E342E33},srcline={1353}}{506F73695C3334375C3334336F20646F20466F726E656365646F72}
\newlabel{tela_fluxo_caixa2}{{4.1}{52}{Fluxo de Caixa}{section.4.1}{}}
\@writefile{toc}{\contentsline {section}{\numberline {4.2}Fluxo de Caixa por Natureza}{52}{section.4.2}}
\newlabel{menu_fluxo_caixa_nat}{{4.2}{52}{Fluxo de Caixa por Natureza}{section.4.2}{}}
\newlabel{tela_fluxo_caixa_nat}{{4.2}{52}{Fluxo de Caixa por Natureza}{section.4.2}{}}
\BKM@entry{id=55,dest={73656374696F6E2E342E34},srcline={1392}}{545C33353574756C6F732061205061676172}
\newlabel{tela_fluxo_caixa_nat2}{{4.2}{53}{Fluxo de Caixa por Natureza}{section.4.2}{}}
\@writefile{toc}{\contentsline {section}{\numberline {4.3}Posi\IeC {\c c}\IeC {\~a}o do Fornecedor}{53}{section.4.3}}
\newlabel{menu_pos_forn}{{4.3}{53}{Posição do Fornecedor}{section.4.3}{}}
\newlabel{tela_pos_forn}{{4.3}{53}{Posição do Fornecedor}{section.4.3}{}}
\newlabel{menu_consultar}{{4.3}{54}{Posição do Fornecedor}{section.4.3}{}}
\newlabel{tela_consultar}{{4.3}{54}{Posição do Fornecedor}{section.4.3}{}}
\newlabel{tela_consultar2}{{4.3}{54}{Posição do Fornecedor}{section.4.3}{}}
\@writefile{toc}{\contentsline {section}{\numberline {4.4}T\IeC {\'\i }tulos a Pagar}{54}{section.4.4}}
\newlabel{menu_pos_titulo_pag}{{4.4}{54}{Títulos a Pagar}{section.4.4}{}}
\BKM@entry{id=56,dest={73656374696F6E2E342E35},srcline={1423}}{506F73695C3334375C3334336F20646F20436C69656E7465}
\newlabel{tela_pos_titulo_pag}{{4.4}{55}{Títulos a Pagar}{section.4.4}{}}
\newlabel{tela_pos_titulo_pag2}{{4.4}{55}{Títulos a Pagar}{section.4.4}{}}
\@writefile{toc}{\contentsline {section}{\numberline {4.5}Posi\IeC {\c c}\IeC {\~a}o do Cliente}{55}{section.4.5}}
\newlabel{menu_pos_cliente}{{4.5}{55}{Posição do Cliente}{section.4.5}{}}
\BKM@entry{id=57,dest={73656374696F6E2E342E36},srcline={1456}}{545C33353574756C6F7320612052656365626572}
\newlabel{tela_pos_cliente}{{4.5}{56}{Posição do Cliente}{section.4.5}{}}
\newlabel{menu_consultar}{{4.5}{56}{Posição do Cliente}{section.4.5}{}}
\newlabel{tela_pos_cliente_consultar}{{4.5}{56}{Posição do Cliente}{section.4.5}{}}
\@writefile{toc}{\contentsline {section}{\numberline {4.6}T\IeC {\'\i }tulos a Receber}{56}{section.4.6}}
\BKM@entry{id=58,dest={73656374696F6E2E342E37},srcline={1493}}{436F6E73756C74612047656E5C33353172696361}
\newlabel{menu_tit_receber}{{4.6}{57}{Títulos a Receber}{section.4.6}{}}
\newlabel{tela_pos_titulo_rec}{{4.6}{57}{Títulos a Receber}{section.4.6}{}}
\newlabel{tela_pos_titulo_consultar}{{4.6}{57}{Títulos a Receber}{section.4.6}{}}
\newlabel{tela_pos_titulo_consultar2}{{4.6}{58}{Títulos a Receber}{section.4.6}{}}
\@writefile{toc}{\contentsline {section}{\numberline {4.7}Consulta Gen\IeC {\'e}rica}{58}{section.4.7}}
\newlabel{menu_consulta_gen}{{4.7}{58}{Consulta Genérica}{section.4.7}{}}
\newlabel{tela_consulta_gen}{{4.7}{58}{Consulta Genérica}{section.4.7}{}}
\newlabel{tela_consulta_gen2}{{4.7}{59}{Consulta Genérica}{section.4.7}{}}
\newlabel{botao_filtrar}{{4.7}{59}{Consulta Genérica}{section.4.7}{}}
\newlabel{botao_dicionario}{{4.7}{60}{Consulta Genérica}{section.4.7}{}}
\newlabel{tela_botao_dicionario}{{4.7}{60}{Consulta Genérica}{section.4.7}{}}
\newlabel{botao_expcv}{{4.7}{60}{Consulta Genérica}{section.4.7}{}}
\BKM@entry{id=59,dest={636861707465722E35},srcline={1547}}{52656C61745C33363372696F73}
\BKM@entry{id=60,dest={73656374696F6E2E352E31},srcline={1558}}{545C33353574756C6F732061205061676172}
\@writefile{toc}{\setlength  {\cftchapterindent }{0em} \setlength  {\cftchapternumwidth }{\cftlastnumwidth }}
\@writefile{toc}{\contentsline {chapter}{\chapternumberline {5}\MakeTextUppercase  {Relat\IeC {\'o}rios}}{61}{chapter.5}}
\newlabel{relatorios}{{5}{61}{Relatórios}{chapter.5}{}}
\newlabel{menu_relatorios}{{5}{61}{Relatórios}{chapter.5}{}}
\@writefile{toc}{\contentsline {section}{\numberline {5.1}T\IeC {\'\i }tulos a Pagar}{61}{section.5.1}}
\newlabel{titulos_pagar}{{5.1}{61}{Títulos a Pagar}{section.5.1}{}}
\newlabel{relatorio_param}{{5.1}{62}{Títulos a Pagar}{section.5.1}{}}
\newlabel{relatorio_param2}{{5.1}{62}{Títulos a Pagar}{section.5.1}{}}
\BKM@entry{id=61,dest={73656374696F6E2E352E32},srcline={1601}}{4D6F76696D656E746F2042616E635C33343172696F}
\BKM@entry{id=62,dest={73656374696F6E2E352E33},srcline={1616}}{5265746F726E6F20436E6162}
\BKM@entry{id=63,dest={73656374696F6E2E352E34},srcline={1625}}{43616978696E6861}
\@writefile{toc}{\contentsline {section}{\numberline {5.2}Movimento Banc\IeC {\'a}rio}{63}{section.5.2}}
\newlabel{menu_rel_movbanc}{{5.2}{63}{Movimento Bancário}{section.5.2}{}}
\newlabel{rel_movbanc}{{5.2}{63}{Movimento Bancário}{section.5.2}{}}
\@writefile{toc}{\contentsline {section}{\numberline {5.3}Retorno Cnab}{63}{section.5.3}}
\newlabel{rel_retcnab}{{5.3}{64}{Retorno Cnab}{section.5.3}{}}
\@writefile{toc}{\contentsline {section}{\numberline {5.4}Caixinha}{64}{section.5.4}}
\newlabel{rel_caixinha}{{5.4}{64}{Caixinha}{section.5.4}{}}
\BKM@entry{id=64,dest={636861707465722E36},srcline={1636}}{5061696E656C}
\@writefile{toc}{\setlength  {\cftchapterindent }{0em} \setlength  {\cftchapternumwidth }{\cftlastnumwidth }}
\@writefile{toc}{\contentsline {chapter}{\chapternumberline {6}\MakeTextUppercase  {Painel}}{65}{chapter.6}}
\newlabel{painel}{{6}{65}{Painel}{chapter.6}{}}
\newlabel{menu_painel}{{6}{65}{Painel}{chapter.6}{}}
\newlabel{painel_ctas_pagar}{{6}{66}{Painel}{chapter.6}{}}
\newlabel{LastPage}{{}{66}{}{page.66}{}}
\xdef\lastpage@lastpage{66}
\xdef\lastpage@lastpageHy{66}
\bibstyle{abntex2-alf}
\memsetcounter{lastsheet}{66}
\memsetcounter{lastpage}{66}
